(const nomodify byte*) SCREEN = (byte*) 1024
(void()) __start()
(label) __start::@1
(label) __start::@return
(label) __start::__init1
(volatile byte) idx loadstore !mem[-1]:12288 mem[1]:12288 0.2222222222222222
(void()) main()
(label) main::@1
(label) main::@2
(label) main::@return
(void()) print((byte) print::ch)
(label) print::@return
(byte) print::ch loadstore !mem[-1]:12289 mem[1]:12289 11.0

mem[1]:12288 [ idx ]
mem[1]:12289 [ print::ch ]
