(const nomodify byte*) SCREEN = (byte*) 1024
(void()) bool_const_if()
(label) bool_const_if::@1
(label) bool_const_if::@return
(void()) bool_const_inline()
(label) bool_const_inline::@1
(label) bool_const_inline::@return
(void()) bool_const_vars()
(label) bool_const_vars::@1
(label) bool_const_vars::@return
(bool) bool_const_vars::b
(bool) bool_const_vars::b1
(bool) bool_const_vars::b2
(void()) main()
(label) main::@1
(label) main::@2
(label) main::@return

