(void()) main()
(label) main::@1
(label) main::@2
(label) main::@3
(label) main::@return
(byte) main::color
(byte) main::color#1 reg byte x 71.0
(byte) main::color#2 reg byte x 4.4
(byte) main::color#3 reg byte x 104.66666666666666
(byte) main::color#5 reg byte x 22.0
(byte*) main::colors
(byte*) main::colors#1 colors zp[2]:4 7.333333333333333
(byte*) main::colors#4 colors zp[2]:4 13.666666666666664
(byte) main::column
(byte) main::column#1 reg byte y 151.5
(byte) main::column#2 reg byte y 101.0
(byte) main::row
(byte) main::row#1 row zp[1]:6 16.5
(byte) main::row#4 row zp[1]:6 2.2
(byte*) main::screen
(byte*) main::screen#1 screen zp[2]:2 5.5
(byte*) main::screen#4 screen zp[2]:2 15.375

zp[2]:2 [ main::screen#4 main::screen#1 ]
zp[2]:4 [ main::colors#4 main::colors#1 ]
zp[1]:6 [ main::row#4 main::row#1 ]
reg byte y [ main::column#2 main::column#1 ]
reg byte x [ main::color#3 main::color#5 main::color#2 main::color#1 ]
