(void()) main()
(label) main::@1
(label) main::@return
(const byte*) main::SCREEN = (byte*) 1024
(byte) main::i
(byte) main::i#1 reg byte x 16.5
(byte) main::i#2 reg byte x 22.0
(const byte*) main::s[]  = (byte*) "camelot"

reg byte x [ main::i#2 main::i#1 ]
