
CONTROL FLOW GRAPH SSA

(void()) main()
main: scope:[main]  from __start
  asm { inx lda#$12 lda$12 lda$12,x ldx$12,y ora($12) lda($12,x) lda($12),y lda$1234 lda$1234,x lda$1234,y beqlbl1 bbr0$12,lbl2 lbl1: jmp($1234) lbl2: jmp($1234,x)  }
  to:main::@return
main::@return: scope:[main]  from main
  return 
  to:@return

(void()) __start()
__start: scope:[__start]  from
  call main 
  to:__start::@1
__start::@1: scope:[__start]  from __start
  to:__start::@return
__start::@return: scope:[__start]  from __start::@1
  return 
  to:@return

SYMBOL TABLE SSA
(void()) __start()
(label) __start::@1
(label) __start::@return
(void()) main()
(label) main::@return

Removing unused procedure __start
Removing unused procedure block __start
Removing unused procedure block __start::@1
Removing unused procedure block __start::@return
Successful SSA optimization PassNEliminateEmptyStart
CALL GRAPH

Created 0 initial phi equivalence classes
Coalesced down to 0 phi equivalence classes

FINAL CONTROL FLOW GRAPH

(void()) main()
main: scope:[main]  from
  asm { inx lda#$12 lda$12 lda$12,x ldx$12,y ora($12) lda($12,x) lda($12),y lda$1234 lda$1234,x lda$1234,y beqlbl1 bbr0$12,lbl2 lbl1: jmp($1234) lbl2: jmp($1234,x)  }
  to:main::@return
main::@return: scope:[main]  from main
  [1] return 
  to:@return


VARIABLE REGISTER WEIGHTS
(void()) main()

Initial phi equivalence classes
Complete equivalence classes

INITIAL ASM
Target platform is c64basic / WDC65C02
  // File Comments
// Tests the different ASM addressing modes
  // Upstart
.cpu _65c02
.pc = $801 "Basic"
:BasicUpstart(main)
.pc = $80d "Program"
  // Global Constants & labels
  // main
main: {
    // asm { inx lda#$12 lda$12 lda$12,x ldx$12,y ora($12) lda($12,x) lda($12),y lda$1234 lda$1234,x lda$1234,y beqlbl1 bbr0$12,lbl2 lbl1: jmp($1234) lbl2: jmp($1234,x)  }
    inx
    lda #$12
    lda.z $12
    lda.z $12,x
    ldx.z $12,y
    ora.z ($12)
    lda ($12,x)
    lda ($12),y
    lda $1234
    lda $1234,x
    lda $1234,y
    beq lbl1
    bbr0 $12,lbl2
  lbl1:
    jmp ($1234)
  lbl2:
    jmp ($1234,x)
    jmp __breturn
    // main::@return
  __breturn:
    // [1] return 
    rts
}
  // File Data

REGISTER UPLIFT POTENTIAL REGISTERS
Statement asm { inx lda#$12 lda$12 lda$12,x ldx$12,y ora($12) lda($12,x) lda($12),y lda$1234 lda$1234,x lda$1234,y beqlbl1 bbr0$12,lbl2 lbl1: jmp($1234) lbl2: jmp($1234,x)  } always clobbers reg byte a reg byte x 

REGISTER UPLIFT SCOPES
Uplift Scope [main] 
Uplift Scope [] 

Uplifting [main] best 72 combination 
Uplifting [] best 72 combination 

ASSEMBLER BEFORE OPTIMIZATION
  // File Comments
// Tests the different ASM addressing modes
  // Upstart
.cpu _65c02
.pc = $801 "Basic"
:BasicUpstart(main)
.pc = $80d "Program"
  // Global Constants & labels
  // main
main: {
    // asm { inx lda#$12 lda$12 lda$12,x ldx$12,y ora($12) lda($12,x) lda($12),y lda$1234 lda$1234,x lda$1234,y beqlbl1 bbr0$12,lbl2 lbl1: jmp($1234) lbl2: jmp($1234,x)  }
    inx
    lda #$12
    lda.z $12
    lda.z $12,x
    ldx.z $12,y
    ora.z ($12)
    lda ($12,x)
    lda ($12),y
    lda $1234
    lda $1234,x
    lda $1234,y
    beq lbl1
    bbr0 $12,lbl2
  lbl1:
    jmp ($1234)
  lbl2:
    jmp ($1234,x)
    jmp __breturn
    // main::@return
  __breturn:
    // [1] return 
    rts
}
  // File Data

ASSEMBLER OPTIMIZATIONS
Removing instruction jmp __breturn
Succesful ASM optimization Pass5NextJumpElimination
Removing instruction __breturn:
Succesful ASM optimization Pass5UnusedLabelElimination
Removing unreachable instruction rts
Succesful ASM optimization Pass5UnreachableCodeElimination

FINAL SYMBOL TABLE
(void()) main()
(label) main::@return



FINAL ASSEMBLER
Score: 63

  // File Comments
// Tests the different ASM addressing modes
  // Upstart
.cpu _65c02
.pc = $801 "Basic"
:BasicUpstart(main)
.pc = $80d "Program"
  // Global Constants & labels
  // main
main: {
    // asm
    // asm { inx lda#$12 lda$12 lda$12,x ldx$12,y ora($12) lda($12,x) lda($12),y lda$1234 lda$1234,x lda$1234,y beqlbl1 bbr0$12,lbl2 lbl1: jmp($1234) lbl2: jmp($1234,x)  }
    inx
    lda #$12
    lda.z $12
    lda.z $12,x
    ldx.z $12,y
    ora.z ($12)
    lda ($12,x)
    lda ($12),y
    lda $1234
    lda $1234,x
    lda $1234,y
    beq lbl1
    bbr0 $12,lbl2
  lbl1:
    jmp ($1234)
  lbl2:
    jmp ($1234,x)
    // main::@return
    // }
    // [1] return 
}
  // File Data

