(const nomodify byte*) SCREEN = (byte*) 1024
(void()) __start()
(label) __start::@1
(label) __start::@return
(label) __start::__init1
(byte) idx loadstore !mem[-1]:4096 mem[1]:4096 38.125
(void()) main()
(label) main::@1
(label) main::@return
(byte) main::i
(byte) main::i#1 reg byte x 151.5
(byte) main::i#2 reg byte x 134.66666666666666

reg byte x [ main::i#2 main::i#1 ]
mem[1]:4096 [ idx ]
