(const nomodify word*) SCREEN = (word*) 1024
(void()) main()
(label) main::@1
(label) main::@return
(const byte*) msg1[]  = { (byte) 'a', (byte) 'b', (byte) 'c', (byte) 'd' }
(const byte*) msg2[]  = { (byte) '1', (byte) '2', (byte) '3', (byte) '4' }
(void()) print((byte*) print::m)
(byte~) print::$1 reg byte a 22.0
(label) print::@return
(byte*) print::m
(byte*) print::m#2 m zp[2]:2
(byte) screen_idx
(byte) screen_idx#11 screen_idx zp[1]:4 8.0
(byte) screen_idx#12 screen_idx zp[1]:4 3.25

zp[2]:2 [ print::m#2 ]
zp[1]:4 [ screen_idx#11 screen_idx#12 ]
reg byte a [ print::$1 ]
