(const byte*) SCREEN1 = (byte*) 1024
(const byte*) SCREEN2 = (byte*) 1280
(void()) main()
(label) main::@1
(label) main::@2
(label) main::@return
(byte) main::i
(byte) main::i#1 reg byte x 16.5
(byte) main::i#2 reg byte x 22.0
(byte) main::j
(byte) main::j#2 reg byte x 16.5
(byte) main::j#3 reg byte x 22.0

reg byte x [ main::i#2 main::i#1 ]
reg byte x [ main::j#3 main::j#2 ]
