(void()) main()
(label) main::@1
(label) main::@return
(void()) puta((byte) puta::ph , (byte) puta::pl)
(label) puta::@return
(byte) puta::ph
(byte) puta::ph#2 reg byte a 11.0
(byte) puta::pl
(byte) puta::pl#2 reg byte x 11.0
(byte*) puta::screen
(word) puta::screen#0 screen zp[2]:2 11.0

reg byte a [ puta::ph#2 ]
reg byte x [ puta::pl#2 ]
zp[2]:2 [ puta::screen#0 ]
