(void()) main()
(label) main::@1
(label) main::@2
(label) main::@return
(const byte*) main::msg[(byte) $b]  = (byte*) "message 3 "
(const byte*) main::msg2[]  = (byte*) "message 2 "
(const byte*) msg1[]  = (byte*) "message 1 "
(void()) print((byte*) print::msg)
(label) print::@1
(label) print::@2
(label) print::@return
(byte*) print::msg
(byte*) print::msg#3 msg zp[2]:4 202.0
(byte*) print::msg#4 msg zp[2]:4 103.75
(byte*) print::msg#6 msg zp[2]:4 11.0
(byte*) screen
(byte*) screen#13 screen zp[2]:2 39.75
(byte*) screen#20 screen zp[2]:2 15.0
(byte*) screen#4 screen zp[2]:2 101.0

zp[2]:2 [ screen#20 screen#13 screen#4 ]
zp[2]:4 [ print::msg#4 print::msg#6 print::msg#3 ]
