(const nomodify byte) GREEN = (byte) 5
(const nomodify byte) RED = (byte) 2
(const nomodify byte) WHITE = (byte) 1
(void()) main()
(label) main::@1
(label) main::@2
(label) main::@3
(label) main::@return
(const byte*) main::cols = (byte*) 55296
(const byte*) main::colseq[]  = { (const nomodify byte) WHITE, (const nomodify byte) RED, (const nomodify byte) GREEN }
(byte) main::i
(byte) main::i#1 reg byte x 16.5
(byte) main::i#2 reg byte x 6.285714285714286
(byte) main::j
(byte) main::j#1 reg byte y 11.0
(byte) main::j#3 reg byte y 11.0
(byte) main::j#4 reg byte y 7.333333333333333
(const byte*) main::screen = (byte*) 1024

reg byte x [ main::i#2 main::i#1 ]
reg byte y [ main::j#3 main::j#4 main::j#1 ]
