(const byte*) HEXTAB[]  = (byte*) "0123456789abcdef"
(const nomodify byte*) SCREEN = (byte*) 1024
(byte) idx
(byte) idx#11 reg byte x 797.5172413793105
(byte) idx#27 reg byte x 14106.0
(byte) idx#31 reg byte x 53.25
(byte) idx#33 reg byte x 151.5
(byte) idx#35 reg byte x 278.25
(void()) main()
(label) main::@1
(label) main::@2
(label) main::@3
(label) main::@4
(label) main::@return
(signed word) main::sw
(signed word) main::sw#1 sw zp[2]:2 16.5
(signed word) main::sw#2 sw zp[2]:2 11.0
(word) main::w
(word) main::w#1 w zp[2]:4 16.5
(word) main::w#2 w zp[2]:4 11.0
(void()) out((byte) out::c)
(label) out::@return
(byte) out::c
(byte) out::c#1 reg byte a 2002.0
(byte) out::c#2 reg byte a 2002.0
(byte) out::c#3 reg byte a 2002.0
(byte) out::c#4 reg byte a 2002.0
(byte) out::c#5 reg byte a 7002.5
(void()) outsw((signed word) outsw::sw)
(label) outsw::@1
(label) outsw::@2
(label) outsw::@3
(label) outsw::@return
(signed word) outsw::sw
(signed word) outsw::sw#0 sw zp[2]:4 78.5
(signed word) outsw::sw#1 sw zp[2]:4 202.0
(signed word) outsw::sw#3 sw zp[2]:4 202.0
(void()) outw((word) outw::w)
(byte~) outw::$0 reg byte a 2002.0
(byte~) outw::$1 reg byte a 2002.0
(byte~) outw::$10 reg byte a 2002.0
(byte~) outw::$3 reg byte a 2002.0
(byte~) outw::$4 reg byte a 2002.0
(byte~) outw::$6 reg byte a 2002.0
(byte~) outw::$7 reg byte a 2002.0
(byte~) outw::$9 reg byte a 2002.0
(label) outw::@1
(label) outw::@2
(label) outw::@3
(label) outw::@return
(word) outw::w
(word) outw::w#0 w zp[2]:4 22.0
(word) outw::w#1 w zp[2]:4 202.0
(word) outw::w#2 w zp[2]:4 316.61538461538464

zp[2]:2 [ main::sw#2 main::sw#1 ]
zp[2]:4 [ main::w#2 main::w#1 outw::w#2 outw::w#0 outw::w#1 outsw::sw#3 outsw::sw#0 outsw::sw#1 ]
reg byte x [ idx#27 idx#35 idx#33 idx#31 idx#11 ]
reg byte a [ out::c#5 out::c#1 out::c#2 out::c#3 out::c#4 ]
reg byte a [ outw::$0 ]
reg byte a [ outw::$1 ]
reg byte a [ outw::$3 ]
reg byte a [ outw::$4 ]
reg byte a [ outw::$6 ]
reg byte a [ outw::$7 ]
reg byte a [ outw::$9 ]
reg byte a [ outw::$10 ]
