(const byte*) SCREEN = (byte*) 1024
(void()) main()
(label) main::@1
(label) main::@2
(label) main::@3
(label) main::@4
(label) main::@return
(byte) main::i
(byte) main::i#1 i zp[1]:2 16.5
(byte) main::i#5 i zp[1]:2 4.4
(byte) main::j
(byte) main::j#1 j zp[1]:3 151.5
(byte) main::j#2 j zp[1]:3 101.0
(void()) nest1()
(label) nest1::@1
(label) nest1::@2
(label) nest1::@3
(label) nest1::@4
(label) nest1::@return
(byte) nest1::i
(byte) nest1::i#1 i zp[1]:4 1500001.5
(byte) nest1::i#5 i zp[1]:4 400000.4
(byte) nest1::j
(byte) nest1::j#1 reg byte a 1.50000015E7
(byte) nest1::j#2 reg byte a 1.0000001E7
(void()) nest2()
(label) nest2::@1
(label) nest2::@2
(label) nest2::@3
(label) nest2::@return
(byte) nest2::i
(byte) nest2::i#1 reg byte x 1.50000000000015E13
(byte) nest2::i#4 reg byte x 4.0000000000004E12
(byte) nest2::j
(byte) nest2::j#1 reg byte y 1.500000000000015E14
(byte) nest2::j#2 reg byte y 1.500000000000015E14

zp[1]:2 [ main::i#5 main::i#1 ]
zp[1]:3 [ main::j#2 main::j#1 ]
zp[1]:4 [ nest1::i#5 nest1::i#1 ]
reg byte a [ nest1::j#2 nest1::j#1 ]
reg byte x [ nest2::i#4 nest2::i#1 ]
reg byte y [ nest2::j#2 nest2::j#1 ]
