(const nomodify byte*) BORDER_COLOR = (byte*) 53280
(const nomodify byte*) SCREEN = (byte*) 1024
(void()) main()
(label) main::@1
(label) main::@return
(void()) mode_ctrl()
(label) mode_ctrl::@1
(label) mode_ctrl::@2
(label) mode_ctrl::@3
(byte) mode_ctrl::before
(byte) mode_ctrl::before#0 reg byte a 202.0
(void()) print_cls()
(label) print_cls::@1
(label) print_cls::@2
(label) print_cls::@return
(byte*) print_cls::sc
(byte*) print_cls::sc#1 sc zp[2]:2 202.0
(byte*) print_cls::sc#2 sc zp[2]:2 134.66666666666666

zp[2]:2 [ print_cls::sc#2 print_cls::sc#1 ]
reg byte a [ mode_ctrl::before#0 ]
