(const nomodify byte*) SCREEN = (byte*) 1024
(void()) main()
(label) main::@1
(label) main::@2
(label) main::@3
(label) main::@return
(byte) main::i
(byte) main::i#1 reg byte x 109.25
(byte) main::i#2 reg byte x 213.0

reg byte x [ main::i#2 main::i#1 ]
