(const byte*) DIGITS[]  = (byte*) "0123456789abcdef"z
(const byte) RADIX::BINARY = (number) 2
(const byte) RADIX::DECIMAL = (number) $a
(const byte) RADIX::HEXADECIMAL = (number) $10
(const byte) RADIX::OCTAL = (number) 8
(const dword*) RADIX_DECIMAL_VALUES_LONG[]  = { (dword) $3b9aca00, (dword) $5f5e100, (dword) $989680, (dword) $f4240, (dword) $186a0, (dword) $2710, (dword) $3e8, (dword) $64, (dword) $a }
(const byte*) decimal_digits_long[(number) $b]  = { fill( $b, 0) }
(void()) main()
(dword~) main::$10 zp[4]:11 22.0
(dword~) main::$11 zp[4]:11 22.0
(dword~) main::$5 zp[4]:11 22.0
(dword~) main::$6 zp[4]:11 22.0
(dword~) main::$7 zp[4]:11 22.0
(dword~) main::$8 zp[4]:11 22.0
(dword~) main::$9 zp[4]:11 22.0
(label) main::@1
(label) main::@2
(label) main::@3
(label) main::@4
(label) main::@return
(dword) main::i
(dword) main::i#1 i zp[4]:2 11.0
(dword) main::i#2 i zp[4]:2 6.769230769230768
(void*()) memset((void*) memset::str , (byte) memset::c , (word) memset::num)
(label) memset::@1
(label) memset::@2
(label) memset::@return
(byte) memset::c
(const byte) memset::c#0 c = (byte) ' '
(byte*) memset::dst
(byte*) memset::dst#1 dst zp[2]:8 2002.0
(byte*) memset::dst#2 dst zp[2]:8 1334.6666666666667
(byte*) memset::end
(const byte*) memset::end#0 end = (byte*)(const void*) memset::str#0+(const word) memset::num#0
(word) memset::num
(const word) memset::num#0 num = (word) $3e8
(void*) memset::return
(void*) memset::str
(const void*) memset::str#0 str = (void*)(const byte*) print_screen#0
(void()) print_char((byte) print_char::ch)
(label) print_char::@return
(byte) print_char::ch
(byte) print_char::ch#0 reg byte a 1100002.0
(byte*) print_char_cursor
(byte*) print_char_cursor#1 print_char_cursor zp[2]:17 150786.07142857142
(byte*) print_char_cursor#13 print_char_cursor_1 zp[2]:8 77.84615384615384
(byte*) print_char_cursor#24 print_char_cursor zp[2]:17 275000.5
(byte*) print_char_cursor#42 print_char_cursor zp[2]:17 2002.0
(void()) print_cls()
(label) print_cls::@return
(byte*) print_line_cursor
(byte*) print_line_cursor#0 print_line_cursor zp[2]:8 5004.166666666666
(byte*) print_line_cursor#10 print_line_cursor_1 zp[2]:6 20103.0
(byte*) print_line_cursor#16 print_line_cursor_1 zp[2]:6 8.615384615384615
(byte*) print_line_cursor#26 print_line_cursor_1 zp[2]:6 20002.0
(byte*) print_line_cursor#27 print_line_cursor_1 zp[2]:6 22.0
(void()) print_ln()
(label) print_ln::@1
(label) print_ln::@2
(label) print_ln::@return
(byte*) print_screen
(const byte*) print_screen#0 print_screen = (byte*) 1024
(void()) print_str((byte*) print_str::str)
(label) print_str::@1
(label) print_str::@2
(label) print_str::@3
(label) print_str::@return
(byte*) print_str::str
(byte*) print_str::str#0 str zp[2]:15 200002.0
(byte*) print_str::str#2 str zp[2]:15 100001.0
(void()) print_ulong_decimal((dword) print_ulong_decimal::w)
(label) print_ulong_decimal::@1
(label) print_ulong_decimal::@return
(dword) print_ulong_decimal::w
(dword) print_ulong_decimal::w#0 w zp[4]:11 112.0
(void()) ultoa((dword) ultoa::value , (byte*) ultoa::buffer , (byte) ultoa::radix)
(byte~) ultoa::$10 reg byte a 200002.0
(byte~) ultoa::$11 reg byte a 2002.0
(label) ultoa::@1
(label) ultoa::@2
(label) ultoa::@3
(label) ultoa::@4
(label) ultoa::@5
(label) ultoa::@6
(label) ultoa::@7
(label) ultoa::@return
(byte*) ultoa::buffer
(byte*) ultoa::buffer#11 buffer zp[2]:15 28714.714285714286
(byte*) ultoa::buffer#14 buffer zp[2]:15 150001.5
(byte*) ultoa::buffer#3 buffer zp[2]:15 2002.0
(byte*) ultoa::buffer#4 buffer zp[2]:15 200002.0
(byte) ultoa::digit
(byte) ultoa::digit#1 digit zp[1]:10 200002.0
(byte) ultoa::digit#2 digit zp[1]:10 28571.714285714286
(dword) ultoa::digit_value
(dword) ultoa::digit_value#0 digit_value zp[4]:19 60000.600000000006
(dword*) ultoa::digit_values
(byte) ultoa::max_digits
(const byte) ultoa::max_digits#1 max_digits = (byte) $a
(byte) ultoa::radix
(byte) ultoa::started
(byte) ultoa::started#2 reg byte x 50000.5
(byte) ultoa::started#4 reg byte x 100001.0
(dword) ultoa::value
(dword) ultoa::value#0 value zp[4]:11 100001.0
(dword) ultoa::value#1 value zp[4]:11 551.0
(dword) ultoa::value#2 value zp[4]:11 57286.42857142857
(dword) ultoa::value#6 value zp[4]:11 150001.5
(dword()) ultoa_append((byte*) ultoa_append::buffer , (dword) ultoa_append::value , (dword) ultoa_append::sub)
(label) ultoa_append::@1
(label) ultoa_append::@2
(label) ultoa_append::@3
(label) ultoa_append::@return
(byte*) ultoa_append::buffer
(byte*) ultoa_append::buffer#0 buffer zp[2]:15 137500.25
(byte) ultoa_append::digit
(byte) ultoa_append::digit#1 reg byte x 1.000000001E9
(byte) ultoa_append::digit#2 reg byte x 1.0005000015E9
(dword) ultoa_append::return
(dword) ultoa_append::return#0 return zp[4]:11 200002.0
(dword) ultoa_append::sub
(dword) ultoa_append::sub#0 sub zp[4]:19 3.333500005E8
(dword) ultoa_append::value
(dword) ultoa_append::value#0 value zp[4]:11 366667.3333333334
(dword) ultoa_append::value#1 value zp[4]:11 2.000000002E9
(dword) ultoa_append::value#2 value zp[4]:11 5.0018333416666675E8

zp[4]:2 [ main::i#2 main::i#1 ]
zp[2]:6 [ print_line_cursor#10 print_line_cursor#16 print_line_cursor#27 print_line_cursor#26 ]
zp[2]:8 [ memset::dst#2 memset::dst#1 print_char_cursor#13 print_line_cursor#0 ]
zp[1]:10 [ ultoa::digit#2 ultoa::digit#1 ]
zp[4]:11 [ ultoa::value#2 ultoa::value#6 ultoa::value#1 ultoa::value#0 ultoa_append::value#2 ultoa_append::value#0 ultoa_append::value#1 print_ulong_decimal::w#0 ultoa_append::return#0 main::$11 main::$9 main::$10 main::$5 main::$6 main::$7 main::$8 ]
reg byte x [ ultoa::started#2 ultoa::started#4 ]
zp[2]:15 [ print_str::str#2 print_str::str#0 ultoa::buffer#11 ultoa::buffer#14 ultoa::buffer#4 ultoa::buffer#3 ultoa_append::buffer#0 ]
zp[2]:17 [ print_char_cursor#1 print_char_cursor#42 print_char_cursor#24 ]
reg byte x [ ultoa_append::digit#2 ultoa_append::digit#1 ]
reg byte a [ ultoa::$11 ]
reg byte a [ ultoa::$10 ]
zp[4]:19 [ ultoa::digit_value#0 ultoa_append::sub#0 ]
reg byte a [ print_char::ch#0 ]
