(void()) main()
(byte~) main::$10 reg byte a 22.0
(byte~) main::$11 reg byte a 22.0
(byte~) main::$12 reg byte a 22.0
(byte~) main::$13 reg byte a 22.0
(byte~) main::$14 reg byte a 22.0
(byte~) main::$16 zp[1]:2 2.605263157894737
(byte~) main::$18 zp[1]:3 3.055555555555556
(byte~) main::$2 reg byte a 22.0
(byte~) main::$21 reg byte a 22.0
(byte~) main::$24 reg byte a 22.0
(byte~) main::$25 reg byte a 22.0
(byte~) main::$27 reg byte a 16.5
(byte~) main::$30 reg byte a 22.0
(byte~) main::$33 reg byte a 22.0
(byte~) main::$34 reg byte a 22.0
(byte~) main::$37 reg byte a 22.0
(byte~) main::$4 reg byte a 22.0
(byte~) main::$40 reg byte a 22.0
(byte~) main::$41 reg byte a 22.0
(byte~) main::$44 reg byte a 22.0
(byte~) main::$45 reg byte a 22.0
(byte~) main::$46 reg byte a 22.0
(byte~) main::$49 reg byte a 22.0
(byte~) main::$5 reg byte a 22.0
(byte~) main::$50 reg byte a 22.0
(byte~) main::$51 reg byte a 22.0
(byte~) main::$52 reg byte a 22.0
(byte~) main::$6 reg byte a 22.0
(byte~) main::$8 reg byte a 22.0
(byte~) main::$9 reg byte a 22.0
(label) main::@1
(label) main::@return
(const nomodify byte*) main::SCREEN = (byte*) 1024
(byte) main::i
(byte) main::i#1 reg byte x 16.5
(byte) main::i#2 reg byte x 9.086956521739129

reg byte x [ main::i#2 main::i#1 ]
zp[1]:2 [ main::$16 ]
reg byte a [ main::$2 ]
zp[1]:3 [ main::$18 ]
reg byte a [ main::$4 ]
reg byte a [ main::$21 ]
reg byte a [ main::$5 ]
reg byte a [ main::$24 ]
reg byte a [ main::$25 ]
reg byte a [ main::$6 ]
reg byte a [ main::$27 ]
reg byte a [ main::$8 ]
reg byte a [ main::$30 ]
reg byte a [ main::$9 ]
reg byte a [ main::$33 ]
reg byte a [ main::$34 ]
reg byte a [ main::$10 ]
reg byte a [ main::$37 ]
reg byte a [ main::$11 ]
reg byte a [ main::$40 ]
reg byte a [ main::$41 ]
reg byte a [ main::$12 ]
reg byte a [ main::$44 ]
reg byte a [ main::$45 ]
reg byte a [ main::$46 ]
reg byte a [ main::$13 ]
reg byte a [ main::$49 ]
reg byte a [ main::$50 ]
reg byte a [ main::$51 ]
reg byte a [ main::$52 ]
reg byte a [ main::$14 ]
