(const byte*) TABLE[(number) $a]  = { fill( $a, 0) }
(void()) main()
(label) main::@1
(label) main::@2
(label) main::@return
(byte) main::i
(byte) main::i#1 reg byte x 22.0
(byte) main::i#2 reg byte x 18.333333333333332

reg byte x [ main::i#2 main::i#1 ]
