(void()) main()
(label) main::@1
(label) main::@2
(label) main::@return
(byte) main::n
(byte) main::n#0 reg byte a 4.0
(byte) main::n#1 reg byte x 11.0
(byte) main::n#2 reg byte a 17.5
(byte) main::n#5 reg byte a 22.0
(byte*) main::ptr
(const to_nomodify byte*) mmap[]  = { (byte) 2, (byte) $5c, (byte) $1a, (byte) 3, (byte) $60, (byte) $1a, (byte) 7 }

reg byte a [ main::n#2 main::n#0 main::n#5 ]
reg byte x [ main::n#1 ]
