(const byte) BINARY = (number) 2
(const nomodify byte*) COLORRAM = (byte*) 55296
(const byte) DECIMAL = (number) $a
(const nomodify byte*) DEFAULT_SCREEN = (byte*) 1024
(const byte*) DIGITS[]  = (byte*) "0123456789abcdef"z
(const byte) HEXADECIMAL = (number) $10
(const nomodify byte) LIGHT_BLUE = (byte) $e
(byte) MOS6526_CIA::INTERRUPT
(byte) MOS6526_CIA::PORT_A
(byte) MOS6526_CIA::PORT_A_DDR
(byte) MOS6526_CIA::PORT_B
(byte) MOS6526_CIA::PORT_B_DDR
(byte) MOS6526_CIA::SERIAL_DATA
(word) MOS6526_CIA::TIMER_A
(byte) MOS6526_CIA::TIMER_A_CONTROL
(word) MOS6526_CIA::TIMER_B
(byte) MOS6526_CIA::TIMER_B_CONTROL
(byte) MOS6526_CIA::TOD_10THS
(byte) MOS6526_CIA::TOD_HOURS
(byte) MOS6526_CIA::TOD_MIN
(byte) MOS6526_CIA::TOD_SEC
(byte) MOS6569_VICII::BG_COLOR
(byte) MOS6569_VICII::BG_COLOR1
(byte) MOS6569_VICII::BG_COLOR2
(byte) MOS6569_VICII::BG_COLOR3
(byte) MOS6569_VICII::BORDER_COLOR
(byte) MOS6569_VICII::CONTROL1
(byte) MOS6569_VICII::CONTROL2
(byte) MOS6569_VICII::IRQ_ENABLE
(byte) MOS6569_VICII::IRQ_STATUS
(byte) MOS6569_VICII::LIGHTPEN_X
(byte) MOS6569_VICII::LIGHTPEN_Y
(byte) MOS6569_VICII::MEMORY
(byte) MOS6569_VICII::RASTER
(byte) MOS6569_VICII::SPRITE0_COLOR
(byte) MOS6569_VICII::SPRITE0_X
(byte) MOS6569_VICII::SPRITE0_Y
(byte) MOS6569_VICII::SPRITE1_COLOR
(byte) MOS6569_VICII::SPRITE1_X
(byte) MOS6569_VICII::SPRITE1_Y
(byte) MOS6569_VICII::SPRITE2_COLOR
(byte) MOS6569_VICII::SPRITE2_X
(byte) MOS6569_VICII::SPRITE2_Y
(byte) MOS6569_VICII::SPRITE3_COLOR
(byte) MOS6569_VICII::SPRITE3_X
(byte) MOS6569_VICII::SPRITE3_Y
(byte) MOS6569_VICII::SPRITE4_COLOR
(byte) MOS6569_VICII::SPRITE4_X
(byte) MOS6569_VICII::SPRITE4_Y
(byte) MOS6569_VICII::SPRITE5_COLOR
(byte) MOS6569_VICII::SPRITE5_X
(byte) MOS6569_VICII::SPRITE5_Y
(byte) MOS6569_VICII::SPRITE6_COLOR
(byte) MOS6569_VICII::SPRITE6_X
(byte) MOS6569_VICII::SPRITE6_Y
(byte) MOS6569_VICII::SPRITE7_COLOR
(byte) MOS6569_VICII::SPRITE7_X
(byte) MOS6569_VICII::SPRITE7_Y
(byte) MOS6569_VICII::SPRITES_BG_COLLISION
(byte) MOS6569_VICII::SPRITES_COLLISION
(byte) MOS6569_VICII::SPRITES_ENABLE
(byte) MOS6569_VICII::SPRITES_EXPAND_X
(byte) MOS6569_VICII::SPRITES_EXPAND_Y
(byte) MOS6569_VICII::SPRITES_MC
(byte) MOS6569_VICII::SPRITES_MCOLOR1
(byte) MOS6569_VICII::SPRITES_MCOLOR2
(byte) MOS6569_VICII::SPRITES_PRIORITY
(byte) MOS6569_VICII::SPRITES_XMSB
(byte) MOS6581_SID::CH1_ATTACK_DECAY
(byte) MOS6581_SID::CH1_CONTROL
(word) MOS6581_SID::CH1_FREQ
(word) MOS6581_SID::CH1_PULSE_WIDTH
(byte) MOS6581_SID::CH1_SUSTAIN_RELEASE
(byte) MOS6581_SID::CH2_ATTACK_DECAY
(byte) MOS6581_SID::CH2_CONTROL
(word) MOS6581_SID::CH2_FREQ
(word) MOS6581_SID::CH2_PULSE_WIDTH
(byte) MOS6581_SID::CH2_SUSTAIN_RELEASE
(byte) MOS6581_SID::CH3_ATTACK_DECAY
(byte) MOS6581_SID::CH3_CONTROL
(byte) MOS6581_SID::CH3_ENV
(word) MOS6581_SID::CH3_FREQ
(byte) MOS6581_SID::CH3_OSC
(word) MOS6581_SID::CH3_PULSE_WIDTH
(byte) MOS6581_SID::CH3_SUSTAIN_RELEASE
(byte) MOS6581_SID::FILTER_CUTOFF_HIGH
(byte) MOS6581_SID::FILTER_CUTOFF_LOW
(byte) MOS6581_SID::FILTER_SETUP
(byte) MOS6581_SID::POT_X
(byte) MOS6581_SID::POT_Y
(byte) MOS6581_SID::VOLUME_FILTER_MODE
(const byte) OCTAL = (number) 8
(const byte) OFFSET_STRUCT_PRINTF_BUFFER_NUMBER_DIGITS = (byte) 1
(const byte) RADIX::BINARY = (number) 2
(const byte) RADIX::DECIMAL = (number) $a
(const byte) RADIX::HEXADECIMAL = (number) $10
(const byte) RADIX::OCTAL = (number) 8
(const word*) RADIX_BINARY_VALUES[]  = { (word) $8000, (word) $4000, (word) $2000, (word) $1000, (word) $800, (word) $400, (word) $200, (word) $100, (word) $80, (word) $40, (word) $20, (word) $10, (word) 8, (word) 4, (word) 2 }
(const word*) RADIX_DECIMAL_VALUES[]  = { (word) $2710, (word) $3e8, (word) $64, (word) $a }
(const byte*) RADIX_DECIMAL_VALUES_CHAR[]  = { (byte) $64, (byte) $a }
(const dword*) RADIX_DECIMAL_VALUES_LONG[]  = { (dword) $3b9aca00, (dword) $5f5e100, (dword) $989680, (dword) $f4240, (dword) $186a0, (dword) $2710, (dword) $3e8, (dword) $64, (dword) $a }
(const word*) RADIX_HEXADECIMAL_VALUES[]  = { (word) $1000, (word) $100, (word) $10 }
(const word*) RADIX_OCTAL_VALUES[]  = { (word) $8000, (word) $1000, (word) $200, (word) $40, (word) 8 }
(const byte) SIZEOF_STRUCT_PRINTF_BUFFER_NUMBER = (byte) $c
(void()) __start()
(label) __start::@1
(label) __start::@return
(label) __start::__init1
(void()) clrscr()
(label) clrscr::@1
(label) clrscr::@2
(label) clrscr::@3
(label) clrscr::@4
(label) clrscr::@5
(label) clrscr::@return
(byte) clrscr::c
(byte) clrscr::c#1 reg byte y 20002.0
(byte) clrscr::c#2 reg byte y 12501.25
(byte) clrscr::l
(byte) clrscr::l#1 reg byte x 2002.0
(byte) clrscr::l#2 reg byte x 333.6666666666667
(byte*) clrscr::line_cols
(byte*) clrscr::line_cols#1 line_cols zp[2]:2 1001.0
(byte*) clrscr::line_cols#5 line_cols zp[2]:2 1500.375
(byte*) clrscr::line_text
(byte*) clrscr::line_text#1 line_text zp[2]:8 667.3333333333334
(byte*) clrscr::line_text#5 line_text zp[2]:8 1714.7142857142858
(byte) conio_cursor_x loadstore zp[1]:17 90909.75151515153
(byte) conio_cursor_y loadstore zp[1]:18 1767956.3977900553
(byte*) conio_line_color loadstore zp[2]:21 1234637.4748603352
(byte*) conio_line_text loadstore zp[2]:19 1227778.3777777776
(void()) cputc((byte) cputc::c)
(label) cputc::@1
(label) cputc::@2
(label) cputc::@3
(label) cputc::@return
(byte) cputc::c
(byte) cputc::c#0 reg byte a 200002.0
(byte) cputc::c#1 reg byte a 200002.0
(byte) cputc::c#2 reg byte a 2002.0
(byte) cputc::c#3 reg byte a 22.0
(byte) cputc::c#5 reg byte a 1100508.0
(void()) cputln()
(label) cputln::@return
(void()) cputs((to_nomodify byte*) cputs::s)
(label) cputs::@1
(label) cputs::@2
(label) cputs::@return
(byte) cputs::c
(byte) cputs::c#1 reg byte a 100001.0
(to_nomodify byte*) cputs::s
(to_nomodify byte*) cputs::s#0 s zp[2]:8 50000.5
(to_nomodify byte*) cputs::s#20 s zp[2]:8 155002.0
(to_nomodify byte*) cputs::s#21 s zp[2]:8 10001.0
(void()) cscroll()
(label) cscroll::@1
(label) cscroll::@2
(label) cscroll::@3
(label) cscroll::@4
(label) cscroll::@5
(label) cscroll::@return
(void()) main()
(label) main::@1
(label) main::@10
(label) main::@11
(label) main::@12
(label) main::@13
(label) main::@14
(label) main::@15
(label) main::@16
(label) main::@17
(label) main::@18
(label) main::@19
(label) main::@2
(label) main::@20
(label) main::@21
(label) main::@22
(label) main::@23
(label) main::@24
(label) main::@25
(label) main::@26
(label) main::@27
(label) main::@3
(label) main::@4
(label) main::@5
(label) main::@6
(label) main::@7
(label) main::@8
(label) main::@9
(label) main::@return
(volatile byte) main::c loadstore zp[1]:23 11.0
(const byte*) main::s[(byte) 9]  = (byte*) "A char: "
(const byte*) main::s1[(byte) 2]  = (byte*) "
"
(const byte*) main::s10[(byte) $f]  = (byte*) "A signed int: "
(const byte*) main::s12[(byte) $12]  = (byte*) "An unsigned int: "
(const byte*) main::s14[(byte) $10]  = (byte*) "A signed long: "
(const byte*) main::s16[(byte) $13]  = (byte*) "An unsigned long: "
(const byte*) main::s2[(byte) $c]  = (byte*) "A pointer: "
(const byte*) main::s4[(byte) $c]  = (byte*) "A percent: "
(const byte*) main::s6[(byte) $10]  = (byte*) "A signed char: "
(const byte*) main::s8[(byte) $13]  = (byte*) "An unsigned char: "
(const signed byte) main::sc = (signed byte) -$c
(const signed word) main::si = (signed word) -$4d2
(const signed dword) main::sl = (signed dword) -$1e240
(const byte) main::uc = (byte) $22
(const word) main::ui = (word) $162e
(const dword) main::ul = (dword) $8aa52
(void*()) memcpy((void*) memcpy::destination , (void*) memcpy::source , (word) memcpy::num)
(label) memcpy::@1
(label) memcpy::@2
(label) memcpy::@return
(void*) memcpy::destination
(void*) memcpy::destination#2 destination zp[2]:33
(byte*) memcpy::dst
(byte*) memcpy::dst#1 dst zp[2]:33 1.00000000001E11
(byte*) memcpy::dst#2 dst zp[2]:33 1.0033333333466667E11
(byte*) memcpy::dst#4 dst zp[2]:33 2.000000002E9
(word) memcpy::num
(void*) memcpy::return
(void*) memcpy::source
(void*) memcpy::source#2 source zp[2]:24
(byte*) memcpy::src
(byte*) memcpy::src#1 src zp[2]:24 2.00000000002E11
(byte*) memcpy::src#2 src zp[2]:24 1.0025000000125E11
(byte*) memcpy::src#4 src zp[2]:24 1.000000001E9
(byte*) memcpy::src_end
(byte*) memcpy::src_end#0 src_end zp[2]:31 1.262500000025E10
(void*()) memset((void*) memset::str , (byte) memset::c , (word) memset::num)
(label) memset::@1
(label) memset::@2
(label) memset::@3
(label) memset::@return
(byte) memset::c
(byte) memset::c#4 reg byte x 1.4285714285857143E10
(byte*) memset::dst
(byte*) memset::dst#1 dst zp[2]:24 2.00000000002E11
(byte*) memset::dst#2 dst zp[2]:24 1.3366666666833334E11
(byte*) memset::dst#4 dst zp[2]:24 2.000000002E9
(byte*) memset::end
(byte*) memset::end#0 end zp[2]:33 1.6833333333666668E10
(word) memset::num
(void*) memset::return
(void*) memset::str
(void*) memset::str#3 str zp[2]:24
(struct printf_buffer_number) printf_buffer loadstore mem[12] = {}
(const byte*) printf_buffer_number::digits[(number) $b]  = { fill( $b, 0) }
(byte) printf_buffer_number::sign
(byte) printf_format_number::justify_left
(byte) printf_format_number::min_length
(byte) printf_format_number::radix
(byte) printf_format_number::sign_always
(byte) printf_format_number::upper_case
(byte) printf_format_number::zero_padding
(byte) printf_format_string::justify_left
(byte) printf_format_string::min_length
(void()) printf_number_buffer((byte) printf_number_buffer::buffer_sign , (byte*) printf_number_buffer::buffer_digits , (byte) printf_number_buffer::format_min_length , (byte) printf_number_buffer::format_justify_left , (byte) printf_number_buffer::format_sign_always , (byte) printf_number_buffer::format_zero_padding , (byte) printf_number_buffer::format_upper_case , (byte) printf_number_buffer::format_radix)
(word~) printf_number_buffer::$19 zp[2]:24 1001.0
(label) printf_number_buffer::@1
(label) printf_number_buffer::@10
(label) printf_number_buffer::@11
(label) printf_number_buffer::@12
(label) printf_number_buffer::@13
(label) printf_number_buffer::@14
(label) printf_number_buffer::@15
(label) printf_number_buffer::@16
(label) printf_number_buffer::@17
(label) printf_number_buffer::@18
(label) printf_number_buffer::@19
(label) printf_number_buffer::@2
(label) printf_number_buffer::@20
(label) printf_number_buffer::@21
(label) printf_number_buffer::@3
(label) printf_number_buffer::@4
(label) printf_number_buffer::@5
(label) printf_number_buffer::@6
(label) printf_number_buffer::@7
(label) printf_number_buffer::@8
(label) printf_number_buffer::@9
(label) printf_number_buffer::@return
(struct printf_buffer_number) printf_number_buffer::buffer
(byte*) printf_number_buffer::buffer_digits
(byte) printf_number_buffer::buffer_sign
(byte) printf_number_buffer::buffer_sign#0 buffer_sign zp[1]:6 202.0
(byte) printf_number_buffer::buffer_sign#1 buffer_sign zp[1]:6 202.0
(byte) printf_number_buffer::buffer_sign#10 buffer_sign zp[1]:6 180.45
(byte) printf_number_buffer::buffer_sign#2 buffer_sign zp[1]:6 202.0
(byte) printf_number_buffer::buffer_sign#3 buffer_sign zp[1]:6 202.0
(byte) printf_number_buffer::buffer_sign#4 buffer_sign zp[1]:6 202.0
(byte) printf_number_buffer::buffer_sign#5 buffer_sign zp[1]:6 202.0
(struct printf_format_number) printf_number_buffer::format
(byte) printf_number_buffer::format_justify_left
(byte) printf_number_buffer::format_justify_left#10 format_justify_left zp[1]:4 64.58064516129032
(byte) printf_number_buffer::format_min_length
(byte) printf_number_buffer::format_min_length#10 reg byte x 100.1
(byte) printf_number_buffer::format_radix
(byte) printf_number_buffer::format_sign_always
(byte) printf_number_buffer::format_upper_case
(byte) printf_number_buffer::format_upper_case#10 format_upper_case zp[1]:7 38.5
(byte) printf_number_buffer::format_zero_padding
(byte) printf_number_buffer::format_zero_padding#10 format_zero_padding zp[1]:5 93.84375
(signed byte) printf_number_buffer::len
(signed byte) printf_number_buffer::len#0 reg byte y 1501.5
(signed byte) printf_number_buffer::len#1 reg byte y 2002.0
(signed byte) printf_number_buffer::len#2 reg byte y 3003.0
(signed byte) printf_number_buffer::padding
(signed byte) printf_number_buffer::padding#1 padding zp[1]:10 1001.0
(signed byte) printf_number_buffer::padding#10 padding zp[1]:10 190.66666666666666
(void()) printf_padding((byte) printf_padding::pad , (byte) printf_padding::length)
(label) printf_padding::@1
(label) printf_padding::@2
(label) printf_padding::@3
(label) printf_padding::@return
(byte) printf_padding::i
(byte) printf_padding::i#1 i zp[1]:16 200002.0
(byte) printf_padding::i#2 i zp[1]:16 75000.75
(byte) printf_padding::length
(byte) printf_padding::length#0 length zp[1]:26 2002.0
(byte) printf_padding::length#1 length zp[1]:26 2002.0
(byte) printf_padding::length#2 length zp[1]:26 2002.0
(byte) printf_padding::length#4 length zp[1]:26 17167.333333333332
(byte) printf_padding::pad
(byte) printf_padding::pad#5 pad zp[1]:15 16666.833333333332
(void()) printf_schar((signed byte) printf_schar::value , (byte) printf_schar::format_min_length , (byte) printf_schar::format_justify_left , (byte) printf_schar::format_sign_always , (byte) printf_schar::format_zero_padding , (byte) printf_schar::format_upper_case , (byte) printf_schar::format_radix)
(label) printf_schar::@1
(label) printf_schar::@2
(label) printf_schar::@3
(label) printf_schar::@return
(struct printf_format_number) printf_schar::format
(byte) printf_schar::format_justify_left
(const byte) printf_schar::format_justify_left#0 format_justify_left = (byte) 0
(byte) printf_schar::format_min_length
(const byte) printf_schar::format_min_length#0 format_min_length = (byte) 0
(byte) printf_schar::format_radix
(byte) printf_schar::format_sign_always
(byte) printf_schar::format_upper_case
(const byte) printf_schar::format_upper_case#0 format_upper_case = (byte) 0
(byte) printf_schar::format_zero_padding
(const byte) printf_schar::format_zero_padding#0 format_zero_padding = (byte) 0
(byte) printf_schar::uvalue
(const byte) printf_schar::uvalue#0 uvalue = (byte)(const signed byte) printf_schar::value#0
(signed byte) printf_schar::value
(const signed byte) printf_schar::value#0 value = -(const signed byte) main::sc
(void()) printf_sint((signed word) printf_sint::value , (byte) printf_sint::format_min_length , (byte) printf_sint::format_justify_left , (byte) printf_sint::format_sign_always , (byte) printf_sint::format_zero_padding , (byte) printf_sint::format_upper_case , (byte) printf_sint::format_radix)
(label) printf_sint::@1
(label) printf_sint::@2
(label) printf_sint::@3
(label) printf_sint::@return
(struct printf_format_number) printf_sint::format
(byte) printf_sint::format_justify_left
(const byte) printf_sint::format_justify_left#0 format_justify_left = (byte) 0
(byte) printf_sint::format_min_length
(const byte) printf_sint::format_min_length#0 format_min_length = (byte) 0
(byte) printf_sint::format_radix
(byte) printf_sint::format_sign_always
(byte) printf_sint::format_upper_case
(const byte) printf_sint::format_upper_case#0 format_upper_case = (byte) 0
(byte) printf_sint::format_zero_padding
(const byte) printf_sint::format_zero_padding#0 format_zero_padding = (byte) 0
(word) printf_sint::uvalue
(const word) printf_sint::uvalue#0 uvalue = (word)(const signed word) printf_sint::value#0
(signed word) printf_sint::value
(const signed word) printf_sint::value#0 value = -(const signed word) main::si
(void()) printf_slong((signed dword) printf_slong::value , (byte) printf_slong::format_min_length , (byte) printf_slong::format_justify_left , (byte) printf_slong::format_sign_always , (byte) printf_slong::format_zero_padding , (byte) printf_slong::format_upper_case , (byte) printf_slong::format_radix)
(label) printf_slong::@1
(label) printf_slong::@2
(label) printf_slong::@3
(label) printf_slong::@return
(struct printf_format_number) printf_slong::format
(byte) printf_slong::format_justify_left
(const byte) printf_slong::format_justify_left#0 format_justify_left = (byte) 0
(byte) printf_slong::format_min_length
(const byte) printf_slong::format_min_length#0 format_min_length = (byte) 0
(byte) printf_slong::format_radix
(byte) printf_slong::format_sign_always
(byte) printf_slong::format_upper_case
(const byte) printf_slong::format_upper_case#0 format_upper_case = (byte) 0
(byte) printf_slong::format_zero_padding
(const byte) printf_slong::format_zero_padding#0 format_zero_padding = (byte) 0
(dword) printf_slong::uvalue
(const dword) printf_slong::uvalue#0 uvalue = (dword)(const signed dword) printf_slong::value#0
(signed dword) printf_slong::value
(const signed dword) printf_slong::value#0 value = -(const signed dword) main::sl
(void()) printf_uchar((byte) printf_uchar::uvalue , (byte) printf_uchar::format_min_length , (byte) printf_uchar::format_justify_left , (byte) printf_uchar::format_sign_always , (byte) printf_uchar::format_zero_padding , (byte) printf_uchar::format_upper_case , (byte) printf_uchar::format_radix)
(label) printf_uchar::@1
(label) printf_uchar::@2
(label) printf_uchar::@return
(struct printf_format_number) printf_uchar::format
(byte) printf_uchar::format_justify_left
(const byte) printf_uchar::format_justify_left#0 format_justify_left = (byte) 0
(byte) printf_uchar::format_min_length
(const byte) printf_uchar::format_min_length#0 format_min_length = (byte) 0
(byte) printf_uchar::format_radix
(byte) printf_uchar::format_sign_always
(byte) printf_uchar::format_upper_case
(const byte) printf_uchar::format_upper_case#0 format_upper_case = (byte) 0
(byte) printf_uchar::format_zero_padding
(const byte) printf_uchar::format_zero_padding#0 format_zero_padding = (byte) 0
(byte) printf_uchar::uvalue
(void()) printf_uint((word) printf_uint::uvalue , (byte) printf_uint::format_min_length , (byte) printf_uint::format_justify_left , (byte) printf_uint::format_sign_always , (byte) printf_uint::format_zero_padding , (byte) printf_uint::format_upper_case , (byte) printf_uint::format_radix)
(label) printf_uint::@1
(label) printf_uint::@2
(label) printf_uint::@return
(struct printf_format_number) printf_uint::format
(byte) printf_uint::format_justify_left
(byte) printf_uint::format_min_length
(byte) printf_uint::format_radix
(byte) printf_uint::format_radix#2 reg byte x 33.666666666666664
(byte) printf_uint::format_sign_always
(byte) printf_uint::format_upper_case
(byte) printf_uint::format_zero_padding
(word) printf_uint::uvalue
(word) printf_uint::uvalue#2 uvalue zp[2]:2 50.5
(void()) printf_ulong((dword) printf_ulong::uvalue , (byte) printf_ulong::format_min_length , (byte) printf_ulong::format_justify_left , (byte) printf_ulong::format_sign_always , (byte) printf_ulong::format_zero_padding , (byte) printf_ulong::format_upper_case , (byte) printf_ulong::format_radix)
(label) printf_ulong::@1
(label) printf_ulong::@2
(label) printf_ulong::@return
(struct printf_format_number) printf_ulong::format
(byte) printf_ulong::format_justify_left
(const byte) printf_ulong::format_justify_left#0 format_justify_left = (byte) 0
(byte) printf_ulong::format_min_length
(const byte) printf_ulong::format_min_length#0 format_min_length = (byte) 0
(byte) printf_ulong::format_radix
(byte) printf_ulong::format_sign_always
(byte) printf_ulong::format_upper_case
(const byte) printf_ulong::format_upper_case#0 format_upper_case = (byte) 0
(byte) printf_ulong::format_zero_padding
(const byte) printf_ulong::format_zero_padding#0 format_zero_padding = (byte) 0
(dword) printf_ulong::uvalue
(word()) strlen((byte*) strlen::str)
(label) strlen::@1
(label) strlen::@2
(label) strlen::@return
(word) strlen::len
(word) strlen::len#1 len zp[2]:24 100001.0
(word) strlen::len#2 len zp[2]:24 50250.75
(word) strlen::return
(word) strlen::return#2 return zp[2]:24 2002.0
(byte*) strlen::str
(byte*) strlen::str#0 str zp[2]:31 200002.0
(byte*) strlen::str#2 str zp[2]:31 100001.0
(byte*()) strupr((byte*) strupr::str)
(byte~) strupr::$0 reg byte a 200002.0
(label) strupr::@1
(label) strupr::@2
(label) strupr::@3
(label) strupr::@return
(byte*) strupr::return
(byte*) strupr::src
(byte*) strupr::src#1 src zp[2]:31 200002.0
(byte*) strupr::src#2 src zp[2]:31 71429.28571428571
(byte*) strupr::str
(const byte*) strupr::str#0 str = (byte*)&(struct printf_buffer_number) printf_buffer+(const byte) OFFSET_STRUCT_PRINTF_BUFFER_NUMBER_DIGITS
(byte()) toupper((byte) toupper::ch)
(label) toupper::@1
(label) toupper::@2
(label) toupper::@return
(byte) toupper::ch
(byte) toupper::ch#0 reg byte a 1700002.0000000002
(byte) toupper::return
(byte) toupper::return#0 reg byte a 2000002.0
(byte) toupper::return#2 reg byte a 1033334.6666666667
(byte) toupper::return#3 reg byte a 200002.0
(void()) uctoa((byte) uctoa::value , (byte*) uctoa::buffer , (byte) uctoa::radix)
(label) uctoa::@1
(label) uctoa::@2
(label) uctoa::@3
(label) uctoa::@4
(label) uctoa::@5
(label) uctoa::@6
(label) uctoa::@7
(label) uctoa::@return
(byte*) uctoa::buffer
(byte*) uctoa::buffer#10 buffer zp[2]:8 3500.4999999999995
(byte*) uctoa::buffer#15 buffer zp[2]:8 15001.5
(byte*) uctoa::buffer#3 buffer zp[2]:8 2002.0
(byte*) uctoa::buffer#4 buffer zp[2]:8 20002.0
(byte) uctoa::digit
(byte) uctoa::digit#1 digit zp[1]:6 20002.0
(byte) uctoa::digit#2 digit zp[1]:6 3077.230769230769
(byte) uctoa::digit_value
(byte) uctoa::digit_value#0 digit_value zp[1]:26 6000.6
(byte*) uctoa::digit_values
(byte) uctoa::max_digits
(byte) uctoa::radix
(byte) uctoa::started
(byte) uctoa::started#2 started zp[1]:7 6000.6
(byte) uctoa::started#4 started zp[1]:7 10001.0
(byte) uctoa::value
(byte) uctoa::value#0 reg byte x 10001.0
(byte) uctoa::value#10 reg byte x 1001.0
(byte) uctoa::value#3 reg byte x 7000.999999999999
(byte) uctoa::value#7 reg byte x 15001.5
(byte()) uctoa_append((byte*) uctoa_append::buffer , (byte) uctoa_append::value , (byte) uctoa_append::sub)
(label) uctoa_append::@1
(label) uctoa_append::@2
(label) uctoa_append::@3
(label) uctoa_append::@return
(byte*) uctoa_append::buffer
(byte*) uctoa_append::buffer#0 buffer zp[2]:8 13750.25
(byte) uctoa_append::digit
(byte) uctoa_append::digit#1 reg byte y 1.0000001E7
(byte) uctoa_append::digit#2 reg byte y 1.00500015E7
(byte) uctoa_append::return
(byte) uctoa_append::return#0 reg byte x 20002.0
(byte) uctoa_append::sub
(byte) uctoa_append::sub#0 sub zp[1]:26 3335000.5
(byte) uctoa_append::value
(byte) uctoa_append::value#0 reg byte x 36667.33333333333
(byte) uctoa_append::value#1 reg byte x 2.0000002E7
(byte) uctoa_append::value#2 reg byte x 5018334.166666666
(void()) ultoa((dword) ultoa::value , (byte*) ultoa::buffer , (byte) ultoa::radix)
(byte~) ultoa::$10 reg byte a 20002.0
(byte~) ultoa::$11 reg byte a 2002.0
(label) ultoa::@1
(label) ultoa::@2
(label) ultoa::@3
(label) ultoa::@4
(label) ultoa::@5
(label) ultoa::@6
(label) ultoa::@7
(label) ultoa::@return
(byte*) ultoa::buffer
(byte*) ultoa::buffer#10 buffer zp[2]:31 3000.4285714285716
(byte*) ultoa::buffer#15 buffer zp[2]:31 15001.5
(byte*) ultoa::buffer#3 buffer zp[2]:31 2002.0
(byte*) ultoa::buffer#4 buffer zp[2]:31 20002.0
(byte) ultoa::digit
(byte) ultoa::digit#1 digit zp[1]:10 20002.0
(byte) ultoa::digit#2 digit zp[1]:10 2857.4285714285716
(dword) ultoa::digit_value
(dword) ultoa::digit_value#0 digit_value zp[4]:27 6000.6
(dword*) ultoa::digit_values
(byte) ultoa::max_digits
(byte) ultoa::radix
(byte) ultoa::started
(byte) ultoa::started#2 reg byte x 5000.5
(byte) ultoa::started#4 reg byte x 10001.0
(dword) ultoa::value
(dword) ultoa::value#0 value zp[4]:11 10001.0
(dword) ultoa::value#10 value zp[4]:11 1001.0
(dword) ultoa::value#3 value zp[4]:11 5857.857142857143
(dword) ultoa::value#7 value zp[4]:11 15001.5
(dword()) ultoa_append((byte*) ultoa_append::buffer , (dword) ultoa_append::value , (dword) ultoa_append::sub)
(label) ultoa_append::@1
(label) ultoa_append::@2
(label) ultoa_append::@3
(label) ultoa_append::@return
(byte*) ultoa_append::buffer
(byte*) ultoa_append::buffer#0 buffer zp[2]:31 13750.25
(byte) ultoa_append::digit
(byte) ultoa_append::digit#1 reg byte x 1.0000001E7
(byte) ultoa_append::digit#2 reg byte x 1.00500015E7
(dword) ultoa_append::return
(dword) ultoa_append::return#0 return zp[4]:11 20002.0
(dword) ultoa_append::sub
(dword) ultoa_append::sub#0 sub zp[4]:27 3335000.5
(dword) ultoa_append::value
(dword) ultoa_append::value#0 value zp[4]:11 36667.33333333333
(dword) ultoa_append::value#1 value zp[4]:11 2.0000002E7
(dword) ultoa_append::value#2 value zp[4]:11 5018334.166666666
(void()) utoa((word) utoa::value , (byte*) utoa::buffer , (byte) utoa::radix)
(byte~) utoa::$10 reg byte a 20002.0
(byte~) utoa::$11 reg byte a 2002.0
(byte~) utoa::$4 reg byte a 20002.0
(label) utoa::@1
(label) utoa::@10
(label) utoa::@11
(label) utoa::@12
(label) utoa::@2
(label) utoa::@3
(label) utoa::@4
(label) utoa::@5
(label) utoa::@6
(label) utoa::@7
(label) utoa::@8
(label) utoa::@9
(label) utoa::@return
(byte*) utoa::buffer
(byte*) utoa::buffer#10 buffer zp[2]:31 2800.4000000000005
(byte*) utoa::buffer#15 buffer zp[2]:31 15001.5
(byte*) utoa::buffer#3 buffer zp[2]:31 2002.0
(byte*) utoa::buffer#4 buffer zp[2]:31 20002.0
(byte) utoa::digit
(byte) utoa::digit#1 digit zp[1]:5 20002.0
(byte) utoa::digit#2 digit zp[1]:5 2666.9333333333334
(word) utoa::digit_value
(word) utoa::digit_value#0 digit_value zp[2]:24 6000.6
(word*) utoa::digit_values
(word*) utoa::digit_values#8 digit_values zp[2]:8 588.2941176470588
(byte) utoa::max_digits
(byte) utoa::max_digits#7 max_digits zp[1]:4 588.2941176470588
(byte) utoa::radix
(byte) utoa::radix#1 reg byte x 202.0
(byte) utoa::radix#2 reg byte x 1026.25
(byte) utoa::started
(byte) utoa::started#2 reg byte x 4286.142857142857
(byte) utoa::started#4 reg byte x 10001.0
(word) utoa::value
(word) utoa::value#0 value zp[2]:2 10001.0
(word) utoa::value#10 value zp[2]:2 183.66666666666669
(word) utoa::value#2 value zp[2]:2 101.0
(word) utoa::value#3 value zp[2]:2 5125.625
(word) utoa::value#7 value zp[2]:2 15001.5
(word()) utoa_append((byte*) utoa_append::buffer , (word) utoa_append::value , (word) utoa_append::sub)
(label) utoa_append::@1
(label) utoa_append::@2
(label) utoa_append::@3
(label) utoa_append::@return
(byte*) utoa_append::buffer
(byte*) utoa_append::buffer#0 buffer zp[2]:31 13750.25
(byte) utoa_append::digit
(byte) utoa_append::digit#1 reg byte x 1.0000001E7
(byte) utoa_append::digit#2 reg byte x 1.00500015E7
(word) utoa_append::return
(word) utoa_append::return#0 return zp[2]:2 20002.0
(word) utoa_append::sub
(word) utoa_append::sub#0 sub zp[2]:24 3335000.5
(word) utoa_append::value
(word) utoa_append::value#0 value zp[2]:2 36667.33333333333
(word) utoa_append::value#1 value zp[2]:2 2.0000002E7
(word) utoa_append::value#2 value zp[2]:2 5018334.166666666

reg byte x [ clrscr::l#2 clrscr::l#1 ]
reg byte y [ clrscr::c#2 clrscr::c#1 ]
reg byte a [ cputc::c#5 cputc::c#0 cputc::c#3 cputc::c#2 cputc::c#1 ]
zp[2]:2 [ printf_uint::uvalue#2 utoa::value#3 utoa::value#7 utoa::value#10 utoa::value#2 utoa::value#0 utoa_append::value#2 utoa_append::value#0 utoa_append::value#1 utoa_append::return#0 clrscr::line_cols#5 clrscr::line_cols#1 ]
reg byte x [ printf_uint::format_radix#2 ]
reg byte x [ utoa::radix#2 utoa::radix#1 ]
reg byte x [ utoa::started#2 utoa::started#4 ]
reg byte x [ printf_number_buffer::format_min_length#10 ]
zp[1]:4 [ printf_number_buffer::format_justify_left#10 utoa::max_digits#7 ]
zp[1]:5 [ printf_number_buffer::format_zero_padding#10 utoa::digit#2 utoa::digit#1 ]
reg byte y [ printf_number_buffer::len#2 printf_number_buffer::len#0 printf_number_buffer::len#1 ]
zp[1]:6 [ uctoa::digit#2 uctoa::digit#1 printf_number_buffer::buffer_sign#10 printf_number_buffer::buffer_sign#4 printf_number_buffer::buffer_sign#2 printf_number_buffer::buffer_sign#0 printf_number_buffer::buffer_sign#5 printf_number_buffer::buffer_sign#3 printf_number_buffer::buffer_sign#1 ]
reg byte x [ uctoa::value#3 uctoa::value#7 uctoa::value#10 uctoa::value#0 ]
zp[1]:7 [ uctoa::started#2 uctoa::started#4 printf_number_buffer::format_upper_case#10 ]
zp[2]:8 [ uctoa::buffer#10 uctoa::buffer#15 uctoa::buffer#4 uctoa::buffer#3 uctoa_append::buffer#0 utoa::digit_values#8 cputs::s#20 cputs::s#21 cputs::s#0 clrscr::line_text#5 clrscr::line_text#1 ]
zp[1]:10 [ ultoa::digit#2 ultoa::digit#1 printf_number_buffer::padding#10 printf_number_buffer::padding#1 ]
zp[4]:11 [ ultoa::value#3 ultoa::value#7 ultoa::value#10 ultoa::value#0 ultoa_append::value#2 ultoa_append::value#0 ultoa_append::value#1 ultoa_append::return#0 ]
reg byte x [ ultoa::started#2 ultoa::started#4 ]
reg byte x [ utoa_append::digit#2 utoa_append::digit#1 ]
zp[1]:15 [ printf_padding::pad#5 ]
zp[1]:16 [ printf_padding::i#2 printf_padding::i#1 ]
reg byte x [ uctoa_append::value#2 uctoa_append::value#0 uctoa_append::value#1 ]
reg byte y [ uctoa_append::digit#2 uctoa_append::digit#1 ]
reg byte x [ ultoa_append::digit#2 ultoa_append::digit#1 ]
reg byte x [ memset::c#4 ]
reg byte a [ toupper::return#2 toupper::return#0 toupper::ch#0 ]
zp[1]:17 [ conio_cursor_x ]
zp[1]:18 [ conio_cursor_y ]
zp[2]:19 [ conio_line_text ]
zp[2]:21 [ conio_line_color ]
zp[1]:23 [ main::c ]
reg byte a [ cputs::c#1 ]
reg byte a [ utoa::$4 ]
reg byte a [ utoa::$11 ]
reg byte a [ utoa::$10 ]
zp[2]:24 [ utoa::digit_value#0 utoa_append::sub#0 strlen::len#2 strlen::len#1 strlen::return#2 printf_number_buffer::$19 memset::str#3 memset::dst#2 memset::dst#4 memset::dst#1 memcpy::source#2 memcpy::src#2 memcpy::src#4 memcpy::src#1 ]
zp[1]:26 [ uctoa::digit_value#0 uctoa_append::sub#0 printf_padding::length#4 printf_padding::length#1 printf_padding::length#2 printf_padding::length#0 ]
reg byte x [ uctoa_append::return#0 ]
reg byte a [ ultoa::$11 ]
reg byte a [ ultoa::$10 ]
zp[4]:27 [ ultoa::digit_value#0 ultoa_append::sub#0 ]
reg byte a [ toupper::return#3 ]
reg byte a [ strupr::$0 ]
zp[2]:31 [ memcpy::src_end#0 strupr::src#2 strupr::src#1 strlen::str#2 strlen::str#0 ultoa::buffer#10 ultoa::buffer#15 ultoa::buffer#4 ultoa::buffer#3 ultoa_append::buffer#0 utoa::buffer#10 utoa::buffer#15 utoa::buffer#4 utoa::buffer#3 utoa_append::buffer#0 ]
zp[2]:33 [ memset::end#0 memcpy::destination#2 memcpy::dst#2 memcpy::dst#4 memcpy::dst#1 ]
mem[12] [ printf_buffer ]
