(const byte) OFFSET_STRUCT_POINT_Y = (byte) 1
(const byte) OFFSET_STRUCT_VECTOR_P2 = (byte) 2
(byte) Point::x
(byte) Point::y
(const nomodify byte*) SCREEN = (byte*) 1024
(const word) STACK_BASE = (word) $103
(struct Point) Vector::p1
(struct Point) Vector::p2
(void()) __start()
(label) __start::@1
(label) __start::@return
(label) __start::__init1
__stackcall (struct Vector()) get((byte) get::i)
(label) get::@return
(const byte) get::OFFSET_STACK_I = (byte) 0
(byte) get::i
(struct Vector) get::return
(struct Point) get::return_p1
(byte) get::return_p1_x
(byte) get::return_p1_x#0 reg byte x 1251.25
(byte) get::return_p1_y
(byte) get::return_p1_y#0 return_p1_y zp[1]:4 500.5
(struct Point) get::return_p2
(byte) get::return_p2_x
(byte) get::return_p2_x#0 reg byte y 500.5
(byte) get::return_p2_y
(byte) get::return_p2_y#0 return_p2_y zp[1]:5 500.5
(struct Point) get::v_p1
(byte) get::v_p1_x
(byte) get::v_p1_y
(struct Point) get::v_p2
(byte) get::v_p2_x
(byte) get::v_p2_y
(byte) idx loadstore zp[1]:3 441.67647058823525
__stackcall (void()) main()
(label) main::@1
(label) main::@2
(label) main::@return
(byte) main::i
(byte) main::i#1 i zp[1]:2 202.0
(byte) main::i#2 i zp[1]:2 26.933333333333334
(struct Point) main::v_p1
(byte) main::v_p1_x
(byte) main::v_p1_x#0 reg byte y 50.5
(byte) main::v_p1_y
(byte) main::v_p1_y#0 reg byte x 50.5
(struct Point) main::v_p2
(byte) main::v_p2_x
(byte) main::v_p2_x#0 v_p2_x zp[1]:4 50.5
(byte) main::v_p2_y
(byte) main::v_p2_y#0 v_p2_y zp[1]:5 50.5
__stackcall (void()) print((byte) print::v_p1_x , (byte) print::v_p1_y , (byte) print::v_p2_x , (byte) print::v_p2_y)
(label) print::@return
(const byte) print::OFFSET_STACK_V_P1_X = (byte) 3
(const byte) print::OFFSET_STACK_V_P1_Y = (byte) 2
(const byte) print::OFFSET_STACK_V_P2_X = (byte) 1
(const byte) print::OFFSET_STACK_V_P2_Y = (byte) 0
(struct Point) print::v_p1
(byte) print::v_p1_x
(byte) print::v_p1_x#0 reg byte y 500.5
(byte) print::v_p1_y
(byte) print::v_p1_y#0 v_p1_y zp[1]:4 400.4
(struct Point) print::v_p2
(byte) print::v_p2_x
(byte) print::v_p2_x#0 v_p2_x zp[1]:5 333.6666666666667
(byte) print::v_p2_y
(byte) print::v_p2_y#0 reg byte x 286.0

zp[1]:2 [ main::i#2 main::i#1 ]
zp[1]:3 [ idx ]
reg byte y [ print::v_p1_x#0 ]
reg byte x [ print::v_p2_y#0 ]
reg byte x [ get::return_p1_x#0 ]
reg byte y [ get::return_p2_x#0 ]
reg byte y [ main::v_p1_x#0 ]
reg byte x [ main::v_p1_y#0 ]
zp[1]:4 [ main::v_p2_x#0 get::return_p1_y#0 print::v_p1_y#0 ]
zp[1]:5 [ main::v_p2_y#0 get::return_p2_y#0 print::v_p2_x#0 ]
