(const nomodify byte*) SCREEN = (byte*) 1024
(void()) __start()
(label) __start::@return
__stackcall (void()) main()
(label) main::@return
(byte) main::val
(byte) main::val#1 reg byte y 11.0
__stackcall (void()) printline()
(label) printline::@1
(label) printline::@2
(label) printline::@return
(byte) printline::i
(byte) printline::i#1 reg byte x 2002.0
(byte) printline::i#2 reg byte x 1334.6666666666667

reg byte x [ printline::i#2 printline::i#1 ]
reg byte y [ main::val#1 ]
