(void()) main()
(byte~) main::$0 reg byte a 22.0
(label) main::@1
(label) main::@2
(label) main::@return
(const nomodify byte*) main::SCREEN = (byte*) 1024
(volatile byte) main::i loadstore zp[1]:5 7.125
(byte()) sub1((byte) sub1::i)
(label) sub1::@return
(byte) sub1::i
(byte) sub1::i#0 reg byte a 213.0
(byte) sub1::return
(byte) sub1::return#0 reg byte a 22.0
(byte) sub1::return#1 reg byte a 37.33333333333333

zp[1]:5 [ main::i ]
reg byte a [ sub1::i#0 ]
reg byte a [ sub1::return#0 ]
reg byte a [ main::$0 ]
reg byte a [ sub1::return#1 ]
