(void()) main()
(label) main::@1
(label) main::@return
(const byte*) main::SCREEN = (byte*) 1024
(byte) main::i
(byte) main::i#1 reg byte x 16.5
(byte) main::i#2 reg byte x 22.000000000000004
(const byte*) petscii_mixed1[]  = (byte*) "abcABC2"pm
(const byte*) petscii_mixed2[]  = (byte*) "abcABC3"pm
(const byte*) screencode_mixed1[]  = (byte*) "abcABC1"
(const byte*) screencode_mixed2[]  = (byte*) "abcABC4"
(const byte*) screencode_mixed3[]  = (byte*) "abcABC6"
(const byte*) screencode_upper[]  = (byte*) "abcABC5"su

reg byte x [ main::i#2 main::i#1 ]
