Constantified RValue *((const struct Point*) points + (word~) main::$2) ← (struct Point){ (byte) 2, (byte)(word) main::i }

CONTROL FLOW GRAPH SSA

(void()) main()
main: scope:[main]  from __start
  (word) main::i#0 ← (word) 0
  to:main::@1
main::@1: scope:[main]  from main main::@1
  (word) main::i#2 ← phi( main/(word) main::i#0 main::@1/(word) main::i#1 )
  (word~) main::$2 ← (word) main::i#2 * (const byte) SIZEOF_STRUCT_POINT
  *((byte*)(const struct Point*) points+(const byte) OFFSET_STRUCT_POINT_X + (word~) main::$2) ← (byte) 2
  *((byte*)(const struct Point*) points+(const byte) OFFSET_STRUCT_POINT_Y + (word~) main::$2) ← (byte)(word) main::i#2
  (word) main::i#1 ← (word) main::i#2 + rangenext(0,$1f3)
  (bool~) main::$0 ← (word) main::i#1 != rangelast(0,$1f3)
  if((bool~) main::$0) goto main::@1
  to:main::@2
main::@2: scope:[main]  from main::@1
  (word) main::i1#0 ← (word) 0
  to:main::@3
main::@3: scope:[main]  from main::@2 main::@3
  (word) main::i1#2 ← phi( main::@2/(word) main::i1#0 main::@3/(word) main::i1#1 )
  (word~) main::$3 ← (word) main::i1#2 * (const byte) SIZEOF_STRUCT_POINT
  *((const nomodify struct Point*) main::SCREEN + (word~) main::$3) ← memcpy(*((const struct Point*) points + (word~) main::$3), struct Point, (const byte) SIZEOF_STRUCT_POINT)
  (word) main::i1#1 ← (word) main::i1#2 + rangenext(0,$1f3)
  (bool~) main::$1 ← (word) main::i1#1 != rangelast(0,$1f3)
  if((bool~) main::$1) goto main::@3
  to:main::@return
main::@return: scope:[main]  from main::@3
  return 
  to:@return

(void()) __start()
__start: scope:[__start]  from
  call main 
  to:__start::@1
__start::@1: scope:[__start]  from __start
  to:__start::@return
__start::@return: scope:[__start]  from __start::@1
  return 
  to:@return

SYMBOL TABLE SSA
(const byte) OFFSET_STRUCT_POINT_X = (byte) 0
(const byte) OFFSET_STRUCT_POINT_Y = (byte) 1
(byte) Point::x
(byte) Point::y
(const byte) SIZEOF_STRUCT_POINT = (byte) 2
(void()) __start()
(label) __start::@1
(label) __start::@return
(void()) main()
(bool~) main::$0
(bool~) main::$1
(word~) main::$2
(word~) main::$3
(label) main::@1
(label) main::@2
(label) main::@3
(label) main::@return
(const nomodify struct Point*) main::SCREEN = (struct Point*)(number) $400
(word) main::i
(word) main::i#0
(word) main::i#1
(word) main::i#2
(word) main::i1
(word) main::i1#0
(word) main::i1#1
(word) main::i1#2
(const struct Point*) points[(number) $1f4]  = { fill( $1f4, 0) }

Simplifying constant pointer cast (struct Point*) 1024
Successful SSA optimization PassNCastSimplification
Simple Condition (bool~) main::$0 [7] if((word) main::i#1!=rangelast(0,$1f3)) goto main::@1
Simple Condition (bool~) main::$1 [14] if((word) main::i1#1!=rangelast(0,$1f3)) goto main::@3
Successful SSA optimization Pass2ConditionalJumpSimplification
Constant (const word) main::i#0 = 0
Constant (const word) main::i1#0 = 0
Successful SSA optimization Pass2ConstantIdentification
Resolved ranged next value [5] main::i#1 ← ++ main::i#2 to ++
Resolved ranged comparison value [7] if(main::i#1!=rangelast(0,$1f3)) goto main::@1 to (number) $1f4
Resolved ranged next value [12] main::i1#1 ← ++ main::i1#2 to ++
Resolved ranged comparison value [14] if(main::i1#1!=rangelast(0,$1f3)) goto main::@3 to (number) $1f4
De-inlining pointer[w] to *(pointer+w)   [3] *((byte*)(const struct Point*) points+(const byte) OFFSET_STRUCT_POINT_X + (word~) main::$2) ← (byte) 2
De-inlining pointer[w] to *(pointer+w)   [4] *((byte*)(const struct Point*) points+(const byte) OFFSET_STRUCT_POINT_Y + (word~) main::$2) ← (byte)(word) main::i#2
De-inlining pointer[w] to *(pointer+w)   [11] *((const nomodify struct Point*) main::SCREEN + (word~) main::$3) ← memcpy(*((const struct Point*) points + (word~) main::$3), struct Point, (const byte) SIZEOF_STRUCT_POINT)
De-inlining pointer[w] to *(pointer+w)   [11] *((const nomodify struct Point*) main::SCREEN + (word~) main::$3) ← memcpy(*((struct Point*~) main::$6), struct Point, (const byte) SIZEOF_STRUCT_POINT)
Successful SSA optimization Pass2DeInlineWordDerefIdx
Simplifying expression containing zero (byte*)points in (byte*~) main::$4 ← (byte*)(const struct Point*) points+(const byte) OFFSET_STRUCT_POINT_X + (word~) main::$2
Successful SSA optimization PassNSimplifyExpressionWithZero
Eliminating unused constant (const byte) OFFSET_STRUCT_POINT_X
Successful SSA optimization PassNEliminateUnusedVars
Removing unused procedure __start
Removing unused procedure block __start
Removing unused procedure block __start::@1
Removing unused procedure block __start::@return
Successful SSA optimization PassNEliminateEmptyStart
Adding number conversion cast (unumber) $1f4 in [7] if((word) main::i#1!=(number) $1f4) goto main::@1
Adding number conversion cast (unumber) $1f4 in [14] if((word) main::i1#1!=(number) $1f4) goto main::@3
Successful SSA optimization PassNAddNumberTypeConversions
Simplifying constant integer cast $1f4
Simplifying constant integer cast $1f4
Successful SSA optimization PassNCastSimplification
Finalized unsigned number type (word) $1f4
Finalized unsigned number type (word) $1f4
Successful SSA optimization PassNFinalizeNumberTypeConversions
Rewriting multiplication to use shift [1] (word~) main::$2 ← (word) main::i#2 * (const byte) SIZEOF_STRUCT_POINT
Rewriting multiplication to use shift [9] (word~) main::$3 ← (word) main::i1#2 * (const byte) SIZEOF_STRUCT_POINT
Successful SSA optimization Pass2MultiplyToShiftRewriting
Inlining constant with var siblings (const word) main::i#0
Inlining constant with var siblings (const word) main::i1#0
Constant inlined main::i#0 = (word) 0
Constant inlined main::i1#0 = (word) 0
Successful SSA optimization Pass2ConstantInlining
Added new block during phi lifting main::@4(between main::@1 and main::@1)
Added new block during phi lifting main::@5(between main::@3 and main::@3)
Adding NOP phi() at start of main
Adding NOP phi() at start of main::@2
CALL GRAPH

Created 2 initial phi equivalence classes
Coalesced [18] main::i1#3 ← main::i1#1
Coalesced [19] main::i#3 ← main::i#1
Coalesced down to 2 phi equivalence classes
Culled Empty Block (label) main::@2
Culled Empty Block (label) main::@5
Culled Empty Block (label) main::@4
Renumbering block main::@3 to main::@2
Adding NOP phi() at start of main

FINAL CONTROL FLOW GRAPH

(void()) main()
main: scope:[main]  from
  [0] phi()
  to:main::@1
main::@1: scope:[main]  from main main::@1
  [1] (word) main::i#2 ← phi( main/(word) 0 main::@1/(word) main::i#1 )
  [2] (word~) main::$2 ← (word) main::i#2 << (byte) 1
  [3] (byte*~) main::$4 ← (byte*)(const struct Point*) points + (word~) main::$2
  [4] *((byte*~) main::$4) ← (byte) 2
  [5] (byte*~) main::$5 ← (byte*)(const struct Point*) points+(const byte) OFFSET_STRUCT_POINT_Y + (word~) main::$2
  [6] *((byte*~) main::$5) ← (byte)(word) main::i#2
  [7] (word) main::i#1 ← ++ (word) main::i#2
  [8] if((word) main::i#1!=(word) $1f4) goto main::@1
  to:main::@2
main::@2: scope:[main]  from main::@1 main::@2
  [9] (word) main::i1#2 ← phi( main::@1/(word) 0 main::@2/(word) main::i1#1 )
  [10] (word~) main::$3 ← (word) main::i1#2 << (byte) 1
  [11] (struct Point*~) main::$6 ← (const struct Point*) points + (word~) main::$3
  [12] (struct Point*~) main::$7 ← (const nomodify struct Point*) main::SCREEN + (word~) main::$3
  [13] *((struct Point*~) main::$7) ← memcpy(*((struct Point*~) main::$6), struct Point, (const byte) SIZEOF_STRUCT_POINT)
  [14] (word) main::i1#1 ← ++ (word) main::i1#2
  [15] if((word) main::i1#1!=(word) $1f4) goto main::@2
  to:main::@return
main::@return: scope:[main]  from main::@2
  [16] return 
  to:@return


VARIABLE REGISTER WEIGHTS
(byte) Point::x
(byte) Point::y
(void()) main()
(word~) main::$2 11.0
(word~) main::$3 16.5
(byte*~) main::$4 22.0
(byte*~) main::$5 22.0
(struct Point*~) main::$6 5.5
(struct Point*~) main::$7 22.0
(word) main::i
(word) main::i#1 16.5
(word) main::i#2 5.5
(word) main::i1
(word) main::i1#1 16.5
(word) main::i1#2 6.6000000000000005

Initial phi equivalence classes
[ main::i#2 main::i#1 ]
[ main::i1#2 main::i1#1 ]
Added variable main::$2 to live range equivalence class [ main::$2 ]
Added variable main::$4 to live range equivalence class [ main::$4 ]
Added variable main::$5 to live range equivalence class [ main::$5 ]
Added variable main::$3 to live range equivalence class [ main::$3 ]
Added variable main::$6 to live range equivalence class [ main::$6 ]
Added variable main::$7 to live range equivalence class [ main::$7 ]
Complete equivalence classes
[ main::i#2 main::i#1 ]
[ main::i1#2 main::i1#1 ]
[ main::$2 ]
[ main::$4 ]
[ main::$5 ]
[ main::$3 ]
[ main::$6 ]
[ main::$7 ]
Allocated zp[2]:2 [ main::i#2 main::i#1 ]
Allocated zp[2]:4 [ main::i1#2 main::i1#1 ]
Allocated zp[2]:6 [ main::$2 ]
Allocated zp[2]:8 [ main::$4 ]
Allocated zp[2]:10 [ main::$5 ]
Allocated zp[2]:12 [ main::$3 ]
Allocated zp[2]:14 [ main::$6 ]
Allocated zp[2]:16 [ main::$7 ]

INITIAL ASM
Target platform is c64basic / MOS6502X
  // File Comments
// Minimal struct -  array with 256+ structs
  // Upstart
.pc = $801 "Basic"
:BasicUpstart(main)
.pc = $80d "Program"
  // Global Constants & labels
  .const SIZEOF_STRUCT_POINT = 2
  .const OFFSET_STRUCT_POINT_Y = 1
  // main
main: {
    .label SCREEN = $400
    .label __2 = 6
    .label __3 = $c
    .label i = 2
    .label i1 = 4
    .label __4 = 8
    .label __5 = $a
    .label __6 = $e
    .label __7 = $10
    // [1] phi from main to main::@1 [phi:main->main::@1]
  __b1_from_main:
    // [1] phi (word) main::i#2 = (word) 0 [phi:main->main::@1#0] -- vwuz1=vwuc1 
    lda #<0
    sta.z i
    lda #>0
    sta.z i+1
    jmp __b1
    // [1] phi from main::@1 to main::@1 [phi:main::@1->main::@1]
  __b1_from___b1:
    // [1] phi (word) main::i#2 = (word) main::i#1 [phi:main::@1->main::@1#0] -- register_copy 
    jmp __b1
    // main::@1
  __b1:
    // [2] (word~) main::$2 ← (word) main::i#2 << (byte) 1 -- vwuz1=vwuz2_rol_1 
    lda.z i
    asl
    sta.z __2
    lda.z i+1
    rol
    sta.z __2+1
    // [3] (byte*~) main::$4 ← (byte*)(const struct Point*) points + (word~) main::$2 -- pbuz1=pbuc1_plus_vwuz2 
    lda.z __2
    clc
    adc #<points
    sta.z __4
    lda.z __2+1
    adc #>points
    sta.z __4+1
    // [4] *((byte*~) main::$4) ← (byte) 2 -- _deref_pbuz1=vbuc1 
    lda #2
    ldy #0
    sta (__4),y
    // [5] (byte*~) main::$5 ← (byte*)(const struct Point*) points+(const byte) OFFSET_STRUCT_POINT_Y + (word~) main::$2 -- pbuz1=pbuc1_plus_vwuz2 
    lda.z __2
    clc
    adc #<points+OFFSET_STRUCT_POINT_Y
    sta.z __5
    lda.z __2+1
    adc #>points+OFFSET_STRUCT_POINT_Y
    sta.z __5+1
    // [6] *((byte*~) main::$5) ← (byte)(word) main::i#2 -- _deref_pbuz1=_byte_vwuz2 
    lda.z i
    ldy #0
    sta (__5),y
    // [7] (word) main::i#1 ← ++ (word) main::i#2 -- vwuz1=_inc_vwuz1 
    inc.z i
    bne !+
    inc.z i+1
  !:
    // [8] if((word) main::i#1!=(word) $1f4) goto main::@1 -- vwuz1_neq_vwuc1_then_la1 
    lda.z i+1
    cmp #>$1f4
    bne __b1_from___b1
    lda.z i
    cmp #<$1f4
    bne __b1_from___b1
    // [9] phi from main::@1 to main::@2 [phi:main::@1->main::@2]
  __b2_from___b1:
    // [9] phi (word) main::i1#2 = (word) 0 [phi:main::@1->main::@2#0] -- vwuz1=vwuc1 
    lda #<0
    sta.z i1
    lda #>0
    sta.z i1+1
    jmp __b2
    // [9] phi from main::@2 to main::@2 [phi:main::@2->main::@2]
  __b2_from___b2:
    // [9] phi (word) main::i1#2 = (word) main::i1#1 [phi:main::@2->main::@2#0] -- register_copy 
    jmp __b2
    // main::@2
  __b2:
    // [10] (word~) main::$3 ← (word) main::i1#2 << (byte) 1 -- vwuz1=vwuz2_rol_1 
    lda.z i1
    asl
    sta.z __3
    lda.z i1+1
    rol
    sta.z __3+1
    // [11] (struct Point*~) main::$6 ← (const struct Point*) points + (word~) main::$3 -- pssz1=pssc1_plus_vwuz2 
    lda.z __3
    clc
    adc #<points
    sta.z __6
    lda.z __3+1
    adc #>points
    sta.z __6+1
    // [12] (struct Point*~) main::$7 ← (const nomodify struct Point*) main::SCREEN + (word~) main::$3 -- pssz1=pssc1_plus_vwuz2 
    lda.z __3
    clc
    adc #<SCREEN
    sta.z __7
    lda.z __3+1
    adc #>SCREEN
    sta.z __7+1
    // [13] *((struct Point*~) main::$7) ← memcpy(*((struct Point*~) main::$6), struct Point, (const byte) SIZEOF_STRUCT_POINT) -- _deref_pssz1=_deref_pssz2_memcpy_vbuc1 
    ldy #0
  !:
    lda (__6),y
    sta (__7),y
    iny
    cpy #SIZEOF_STRUCT_POINT
    bne !-
    // [14] (word) main::i1#1 ← ++ (word) main::i1#2 -- vwuz1=_inc_vwuz1 
    inc.z i1
    bne !+
    inc.z i1+1
  !:
    // [15] if((word) main::i1#1!=(word) $1f4) goto main::@2 -- vwuz1_neq_vwuc1_then_la1 
    lda.z i1+1
    cmp #>$1f4
    bne __b2_from___b2
    lda.z i1
    cmp #<$1f4
    bne __b2_from___b2
    jmp __breturn
    // main::@return
  __breturn:
    // [16] return 
    rts
}
  // File Data
  points: .fill 2*$1f4, 0

REGISTER UPLIFT POTENTIAL REGISTERS
Statement [2] (word~) main::$2 ← (word) main::i#2 << (byte) 1 [ main::i#2 main::$2 ] (  [ main::i#2 main::$2 ] { }  ) always clobbers reg byte a 
Statement [3] (byte*~) main::$4 ← (byte*)(const struct Point*) points + (word~) main::$2 [ main::i#2 main::$2 main::$4 ] (  [ main::i#2 main::$2 main::$4 ] { }  ) always clobbers reg byte a 
Statement [4] *((byte*~) main::$4) ← (byte) 2 [ main::i#2 main::$2 ] (  [ main::i#2 main::$2 ] { }  ) always clobbers reg byte a reg byte y 
Statement [5] (byte*~) main::$5 ← (byte*)(const struct Point*) points+(const byte) OFFSET_STRUCT_POINT_Y + (word~) main::$2 [ main::i#2 main::$5 ] (  [ main::i#2 main::$5 ] { }  ) always clobbers reg byte a 
Statement [6] *((byte*~) main::$5) ← (byte)(word) main::i#2 [ main::i#2 ] (  [ main::i#2 ] { }  ) always clobbers reg byte a reg byte y 
Statement [8] if((word) main::i#1!=(word) $1f4) goto main::@1 [ main::i#1 ] (  [ main::i#1 ] { }  ) always clobbers reg byte a 
Statement [10] (word~) main::$3 ← (word) main::i1#2 << (byte) 1 [ main::i1#2 main::$3 ] (  [ main::i1#2 main::$3 ] { }  ) always clobbers reg byte a 
Statement [11] (struct Point*~) main::$6 ← (const struct Point*) points + (word~) main::$3 [ main::i1#2 main::$3 main::$6 ] (  [ main::i1#2 main::$3 main::$6 ] { }  ) always clobbers reg byte a 
Statement [12] (struct Point*~) main::$7 ← (const nomodify struct Point*) main::SCREEN + (word~) main::$3 [ main::i1#2 main::$6 main::$7 ] (  [ main::i1#2 main::$6 main::$7 ] { }  ) always clobbers reg byte a 
Statement [13] *((struct Point*~) main::$7) ← memcpy(*((struct Point*~) main::$6), struct Point, (const byte) SIZEOF_STRUCT_POINT) [ main::i1#2 ] (  [ main::i1#2 ] { }  ) always clobbers reg byte a reg byte y 
Statement [15] if((word) main::i1#1!=(word) $1f4) goto main::@2 [ main::i1#1 ] (  [ main::i1#1 ] { }  ) always clobbers reg byte a 
Potential registers zp[2]:2 [ main::i#2 main::i#1 ] : zp[2]:2 , 
Potential registers zp[2]:4 [ main::i1#2 main::i1#1 ] : zp[2]:4 , 
Potential registers zp[2]:6 [ main::$2 ] : zp[2]:6 , 
Potential registers zp[2]:8 [ main::$4 ] : zp[2]:8 , 
Potential registers zp[2]:10 [ main::$5 ] : zp[2]:10 , 
Potential registers zp[2]:12 [ main::$3 ] : zp[2]:12 , 
Potential registers zp[2]:14 [ main::$6 ] : zp[2]:14 , 
Potential registers zp[2]:16 [ main::$7 ] : zp[2]:16 , 

REGISTER UPLIFT SCOPES
Uplift Scope [main] 23.1: zp[2]:4 [ main::i1#2 main::i1#1 ] 22: zp[2]:2 [ main::i#2 main::i#1 ] 22: zp[2]:8 [ main::$4 ] 22: zp[2]:10 [ main::$5 ] 22: zp[2]:16 [ main::$7 ] 16.5: zp[2]:12 [ main::$3 ] 11: zp[2]:6 [ main::$2 ] 5.5: zp[2]:14 [ main::$6 ] 
Uplift Scope [Point] 
Uplift Scope [] 

Uplifting [main] best 2356 combination zp[2]:4 [ main::i1#2 main::i1#1 ] zp[2]:2 [ main::i#2 main::i#1 ] zp[2]:8 [ main::$4 ] zp[2]:10 [ main::$5 ] zp[2]:16 [ main::$7 ] zp[2]:12 [ main::$3 ] zp[2]:6 [ main::$2 ] zp[2]:14 [ main::$6 ] 
Uplifting [Point] best 2356 combination 
Uplifting [] best 2356 combination 
Coalescing zero page register [ zp[2]:6 [ main::$2 ] ] with [ zp[2]:10 [ main::$5 ] ] - score: 1
Coalescing zero page register [ zp[2]:12 [ main::$3 ] ] with [ zp[2]:16 [ main::$7 ] ] - score: 1
Allocated (was zp[2]:12) zp[2]:10 [ main::$3 main::$7 ]
Allocated (was zp[2]:14) zp[2]:12 [ main::$6 ]

ASSEMBLER BEFORE OPTIMIZATION
  // File Comments
// Minimal struct -  array with 256+ structs
  // Upstart
.pc = $801 "Basic"
:BasicUpstart(main)
.pc = $80d "Program"
  // Global Constants & labels
  .const SIZEOF_STRUCT_POINT = 2
  .const OFFSET_STRUCT_POINT_Y = 1
  // main
main: {
    .label SCREEN = $400
    .label __2 = 6
    .label __3 = $a
    .label i = 2
    .label i1 = 4
    .label __4 = 8
    .label __5 = 6
    .label __6 = $c
    .label __7 = $a
    // [1] phi from main to main::@1 [phi:main->main::@1]
  __b1_from_main:
    // [1] phi (word) main::i#2 = (word) 0 [phi:main->main::@1#0] -- vwuz1=vwuc1 
    lda #<0
    sta.z i
    lda #>0
    sta.z i+1
    jmp __b1
    // [1] phi from main::@1 to main::@1 [phi:main::@1->main::@1]
  __b1_from___b1:
    // [1] phi (word) main::i#2 = (word) main::i#1 [phi:main::@1->main::@1#0] -- register_copy 
    jmp __b1
    // main::@1
  __b1:
    // [2] (word~) main::$2 ← (word) main::i#2 << (byte) 1 -- vwuz1=vwuz2_rol_1 
    lda.z i
    asl
    sta.z __2
    lda.z i+1
    rol
    sta.z __2+1
    // [3] (byte*~) main::$4 ← (byte*)(const struct Point*) points + (word~) main::$2 -- pbuz1=pbuc1_plus_vwuz2 
    lda.z __2
    clc
    adc #<points
    sta.z __4
    lda.z __2+1
    adc #>points
    sta.z __4+1
    // [4] *((byte*~) main::$4) ← (byte) 2 -- _deref_pbuz1=vbuc1 
    lda #2
    ldy #0
    sta (__4),y
    // [5] (byte*~) main::$5 ← (byte*)(const struct Point*) points+(const byte) OFFSET_STRUCT_POINT_Y + (word~) main::$2 -- pbuz1=pbuc1_plus_vwuz1 
    clc
    lda.z __5
    adc #<points+OFFSET_STRUCT_POINT_Y
    sta.z __5
    lda.z __5+1
    adc #>points+OFFSET_STRUCT_POINT_Y
    sta.z __5+1
    // [6] *((byte*~) main::$5) ← (byte)(word) main::i#2 -- _deref_pbuz1=_byte_vwuz2 
    lda.z i
    ldy #0
    sta (__5),y
    // [7] (word) main::i#1 ← ++ (word) main::i#2 -- vwuz1=_inc_vwuz1 
    inc.z i
    bne !+
    inc.z i+1
  !:
    // [8] if((word) main::i#1!=(word) $1f4) goto main::@1 -- vwuz1_neq_vwuc1_then_la1 
    lda.z i+1
    cmp #>$1f4
    bne __b1_from___b1
    lda.z i
    cmp #<$1f4
    bne __b1_from___b1
    // [9] phi from main::@1 to main::@2 [phi:main::@1->main::@2]
  __b2_from___b1:
    // [9] phi (word) main::i1#2 = (word) 0 [phi:main::@1->main::@2#0] -- vwuz1=vwuc1 
    lda #<0
    sta.z i1
    lda #>0
    sta.z i1+1
    jmp __b2
    // [9] phi from main::@2 to main::@2 [phi:main::@2->main::@2]
  __b2_from___b2:
    // [9] phi (word) main::i1#2 = (word) main::i1#1 [phi:main::@2->main::@2#0] -- register_copy 
    jmp __b2
    // main::@2
  __b2:
    // [10] (word~) main::$3 ← (word) main::i1#2 << (byte) 1 -- vwuz1=vwuz2_rol_1 
    lda.z i1
    asl
    sta.z __3
    lda.z i1+1
    rol
    sta.z __3+1
    // [11] (struct Point*~) main::$6 ← (const struct Point*) points + (word~) main::$3 -- pssz1=pssc1_plus_vwuz2 
    lda.z __3
    clc
    adc #<points
    sta.z __6
    lda.z __3+1
    adc #>points
    sta.z __6+1
    // [12] (struct Point*~) main::$7 ← (const nomodify struct Point*) main::SCREEN + (word~) main::$3 -- pssz1=pssc1_plus_vwuz1 
    clc
    lda.z __7
    adc #<SCREEN
    sta.z __7
    lda.z __7+1
    adc #>SCREEN
    sta.z __7+1
    // [13] *((struct Point*~) main::$7) ← memcpy(*((struct Point*~) main::$6), struct Point, (const byte) SIZEOF_STRUCT_POINT) -- _deref_pssz1=_deref_pssz2_memcpy_vbuc1 
    ldy #0
  !:
    lda (__6),y
    sta (__7),y
    iny
    cpy #SIZEOF_STRUCT_POINT
    bne !-
    // [14] (word) main::i1#1 ← ++ (word) main::i1#2 -- vwuz1=_inc_vwuz1 
    inc.z i1
    bne !+
    inc.z i1+1
  !:
    // [15] if((word) main::i1#1!=(word) $1f4) goto main::@2 -- vwuz1_neq_vwuc1_then_la1 
    lda.z i1+1
    cmp #>$1f4
    bne __b2_from___b2
    lda.z i1
    cmp #<$1f4
    bne __b2_from___b2
    jmp __breturn
    // main::@return
  __breturn:
    // [16] return 
    rts
}
  // File Data
  points: .fill 2*$1f4, 0

ASSEMBLER OPTIMIZATIONS
Removing instruction jmp __b1
Removing instruction jmp __b2
Removing instruction jmp __breturn
Succesful ASM optimization Pass5NextJumpElimination
Removing instruction lda #>0
Removing instruction ldy #0
Removing instruction lda #>0
Succesful ASM optimization Pass5UnnecesaryLoadElimination
Replacing label __b1_from___b1 with __b1
Replacing label __b1_from___b1 with __b1
Replacing label __b2_from___b2 with __b2
Replacing label __b2_from___b2 with __b2
Removing instruction __b1_from___b1:
Removing instruction __b2_from___b2:
Succesful ASM optimization Pass5RedundantLabelElimination
Removing instruction __b1_from_main:
Removing instruction __b2_from___b1:
Removing instruction __breturn:
Succesful ASM optimization Pass5UnusedLabelElimination
Removing instruction jmp __b1
Removing instruction jmp __b2
Succesful ASM optimization Pass5NextJumpElimination

FINAL SYMBOL TABLE
(const byte) OFFSET_STRUCT_POINT_Y = (byte) 1
(byte) Point::x
(byte) Point::y
(const byte) SIZEOF_STRUCT_POINT = (byte) 2
(void()) main()
(word~) main::$2 zp[2]:6 11.0
(word~) main::$3 zp[2]:10 16.5
(byte*~) main::$4 zp[2]:8 22.0
(byte*~) main::$5 zp[2]:6 22.0
(struct Point*~) main::$6 zp[2]:12 5.5
(struct Point*~) main::$7 zp[2]:10 22.0
(label) main::@1
(label) main::@2
(label) main::@return
(const nomodify struct Point*) main::SCREEN = (struct Point*) 1024
(word) main::i
(word) main::i#1 i zp[2]:2 16.5
(word) main::i#2 i zp[2]:2 5.5
(word) main::i1
(word) main::i1#1 i1 zp[2]:4 16.5
(word) main::i1#2 i1 zp[2]:4 6.6000000000000005
(const struct Point*) points[(number) $1f4]  = { fill( $1f4, 0) }

zp[2]:2 [ main::i#2 main::i#1 ]
zp[2]:4 [ main::i1#2 main::i1#1 ]
zp[2]:6 [ main::$2 main::$5 ]
zp[2]:8 [ main::$4 ]
zp[2]:10 [ main::$3 main::$7 ]
zp[2]:12 [ main::$6 ]


FINAL ASSEMBLER
Score: 2146

  // File Comments
// Minimal struct -  array with 256+ structs
  // Upstart
.pc = $801 "Basic"
:BasicUpstart(main)
.pc = $80d "Program"
  // Global Constants & labels
  .const SIZEOF_STRUCT_POINT = 2
  .const OFFSET_STRUCT_POINT_Y = 1
  // main
main: {
    .label SCREEN = $400
    .label __2 = 6
    .label __3 = $a
    .label i = 2
    .label i1 = 4
    .label __4 = 8
    .label __5 = 6
    .label __6 = $c
    .label __7 = $a
    // [1] phi from main to main::@1 [phi:main->main::@1]
    // [1] phi (word) main::i#2 = (word) 0 [phi:main->main::@1#0] -- vwuz1=vwuc1 
    lda #<0
    sta.z i
    sta.z i+1
    // [1] phi from main::@1 to main::@1 [phi:main::@1->main::@1]
    // [1] phi (word) main::i#2 = (word) main::i#1 [phi:main::@1->main::@1#0] -- register_copy 
    // main::@1
  __b1:
    // points[i] = { 2, (byte)i }
    // [2] (word~) main::$2 ← (word) main::i#2 << (byte) 1 -- vwuz1=vwuz2_rol_1 
    lda.z i
    asl
    sta.z __2
    lda.z i+1
    rol
    sta.z __2+1
    // [3] (byte*~) main::$4 ← (byte*)(const struct Point*) points + (word~) main::$2 -- pbuz1=pbuc1_plus_vwuz2 
    lda.z __2
    clc
    adc #<points
    sta.z __4
    lda.z __2+1
    adc #>points
    sta.z __4+1
    // [4] *((byte*~) main::$4) ← (byte) 2 -- _deref_pbuz1=vbuc1 
    lda #2
    ldy #0
    sta (__4),y
    // [5] (byte*~) main::$5 ← (byte*)(const struct Point*) points+(const byte) OFFSET_STRUCT_POINT_Y + (word~) main::$2 -- pbuz1=pbuc1_plus_vwuz1 
    clc
    lda.z __5
    adc #<points+OFFSET_STRUCT_POINT_Y
    sta.z __5
    lda.z __5+1
    adc #>points+OFFSET_STRUCT_POINT_Y
    sta.z __5+1
    // [6] *((byte*~) main::$5) ← (byte)(word) main::i#2 -- _deref_pbuz1=_byte_vwuz2 
    lda.z i
    sta (__5),y
    // for( word i: 0..499)
    // [7] (word) main::i#1 ← ++ (word) main::i#2 -- vwuz1=_inc_vwuz1 
    inc.z i
    bne !+
    inc.z i+1
  !:
    // [8] if((word) main::i#1!=(word) $1f4) goto main::@1 -- vwuz1_neq_vwuc1_then_la1 
    lda.z i+1
    cmp #>$1f4
    bne __b1
    lda.z i
    cmp #<$1f4
    bne __b1
    // [9] phi from main::@1 to main::@2 [phi:main::@1->main::@2]
    // [9] phi (word) main::i1#2 = (word) 0 [phi:main::@1->main::@2#0] -- vwuz1=vwuc1 
    lda #<0
    sta.z i1
    sta.z i1+1
    // [9] phi from main::@2 to main::@2 [phi:main::@2->main::@2]
    // [9] phi (word) main::i1#2 = (word) main::i1#1 [phi:main::@2->main::@2#0] -- register_copy 
    // main::@2
  __b2:
    // SCREEN[i] = points[i]
    // [10] (word~) main::$3 ← (word) main::i1#2 << (byte) 1 -- vwuz1=vwuz2_rol_1 
    lda.z i1
    asl
    sta.z __3
    lda.z i1+1
    rol
    sta.z __3+1
    // [11] (struct Point*~) main::$6 ← (const struct Point*) points + (word~) main::$3 -- pssz1=pssc1_plus_vwuz2 
    lda.z __3
    clc
    adc #<points
    sta.z __6
    lda.z __3+1
    adc #>points
    sta.z __6+1
    // [12] (struct Point*~) main::$7 ← (const nomodify struct Point*) main::SCREEN + (word~) main::$3 -- pssz1=pssc1_plus_vwuz1 
    clc
    lda.z __7
    adc #<SCREEN
    sta.z __7
    lda.z __7+1
    adc #>SCREEN
    sta.z __7+1
    // [13] *((struct Point*~) main::$7) ← memcpy(*((struct Point*~) main::$6), struct Point, (const byte) SIZEOF_STRUCT_POINT) -- _deref_pssz1=_deref_pssz2_memcpy_vbuc1 
    ldy #0
  !:
    lda (__6),y
    sta (__7),y
    iny
    cpy #SIZEOF_STRUCT_POINT
    bne !-
    // for( word i: 0..499)
    // [14] (word) main::i1#1 ← ++ (word) main::i1#2 -- vwuz1=_inc_vwuz1 
    inc.z i1
    bne !+
    inc.z i1+1
  !:
    // [15] if((word) main::i1#1!=(word) $1f4) goto main::@2 -- vwuz1_neq_vwuc1_then_la1 
    lda.z i1+1
    cmp #>$1f4
    bne __b2
    lda.z i1
    cmp #<$1f4
    bne __b2
    // main::@return
    // }
    // [16] return 
    rts
}
  // File Data
  points: .fill 2*$1f4, 0

