(const byte*) Point::initials[(number) 2]  = { fill( 2, 0) }
(signed word) Point::x
(const nomodify byte*) SCREEN = (byte*) 1024
(const byte) SIZEOF_STRUCT_POINT = (byte) 4
(void()) main()
(label) main::@return

