(struct Point) Circle::center
(byte) Circle::radius
(byte) Point::x
(byte) Point::y
(void()) main()
(label) main::@return
(const nomodify byte*) main::SCREEN = (byte*) 1024
(struct Point) main::c_center
(byte) main::c_center_x
(byte) main::c_center_y
(const byte) main::c_radius = (byte) 5
(const byte) main::p_x = (byte) $a
(const byte) main::p_y = (byte) $a
(byte) main::point_x
(byte) main::point_y

