(const byte) MOVE_TO = (byte) 0
(const byte) OFFSET_STRUCT_SEGMENT_TO = (byte) 1
(const byte) OFFSET_STRUCT_SPLINEVECTOR16_Y = (byte) 2
(const nomodify signed word*) SCREEN = (signed word*) 1024
(const byte) SPLINE_TO = (byte) 1
(const byte) Segment::SegmentType::LINE_TO = (byte) 2
(const byte) Segment::SegmentType::MOVE_TO = (byte) 0
(const byte) Segment::SegmentType::SPLINE_TO = (byte) 1
(struct SplineVector16) Segment::to
(byte) Segment::type
(struct SplineVector16) Segment::via
(signed word) SplineVector16::x
(signed word) SplineVector16::y
(const struct Segment*) letter_c[]  = { { type: (const byte) MOVE_TO, to: { x: (signed word)(byte) 'a', y: (signed word)(byte) 'b' }, via: { x: (signed word) 0, y: (signed word) 0 } }, { type: (const byte) SPLINE_TO, to: { x: (signed word)(byte) 'c', y: (signed word)(byte) 'd' }, via: { x: (signed word) $67, y: (signed word) $a9 } }, { type: (const byte) SPLINE_TO, to: { x: (signed word)(byte) 'e', y: (signed word)(byte) 'f' }, via: { x: (signed word) $4b, y: (signed word) $c3 } } }
(void()) main()
(byte~) main::$1 reg byte y 16.5
(byte~) main::$2 reg byte a 22.0
(byte~) main::$3 reg byte a 22.0
(byte~) main::$4 reg byte a 22.0
(label) main::@1
(label) main::@return
(byte) main::i
(byte) main::i#1 reg byte x 16.5
(byte) main::i#2 reg byte x 4.0
(byte) main::j
(byte) main::j#1 j zp[1]:2 11.0
(byte) main::j#2 j zp[1]:2 7.333333333333333
(byte) main::j#3 j zp[1]:2 4.714285714285714
(signed word) main::to_x
(signed word) main::to_x#0 to_x zp[2]:3 7.333333333333333
(signed word) main::to_y
(signed word) main::to_y#0 to_y zp[2]:5 4.4

reg byte x [ main::i#2 main::i#1 ]
zp[1]:2 [ main::j#3 main::j#2 main::j#1 ]
reg byte a [ main::$4 ]
reg byte y [ main::$1 ]
zp[2]:3 [ main::to_x#0 ]
zp[2]:5 [ main::to_y#0 ]
reg byte a [ main::$2 ]
reg byte a [ main::$3 ]
