(const byte*) DIGIT[]  = (byte*) "0123456789"
(const byte) OFFSET_STRUCT_PERSON_NAME = (byte) 1
(byte) Person::id
(const byte*) Person::name[(number) $10]  = { fill( $10, 0) }
(const nomodify byte*) SCREEN = (byte*) 1024
(const byte) SIZEOF_STRUCT_PERSON = (byte) $11
(byte) idx
(byte) idx#14 reg byte x 12.0
(byte) idx#15 reg byte x 55.999999999999986
(byte) idx#17 reg byte x 3.25
(byte) idx#3 reg byte x 16.5
(byte) idx#4 reg byte x 22.0
(byte) idx#5 reg byte x 101.0
(void()) main()
(label) main::@1
(label) main::@return
(const struct Person*) persons[]  = { { id: (byte) 4, name: (byte*) "jesper" }, { id: (byte) 7, name: (byte*) "henriette" } }
(void()) print_person((struct Person*) print_person::person)
(byte*~) print_person::$1 zp[2]:4 202.0
(byte*~) print_person::$2 zp[2]:6 202.0
(label) print_person::@1
(label) print_person::@2
(label) print_person::@3
(label) print_person::@return
(byte) print_person::i
(byte) print_person::i#1 reg byte y 202.0
(byte) print_person::i#2 reg byte y 67.33333333333333
(struct Person*) print_person::person
(struct Person*) print_person::person#2 person zp[2]:2

zp[2]:2 [ print_person::person#2 ]
reg byte x [ idx#14 idx#17 ]
reg byte y [ print_person::i#2 print_person::i#1 ]
reg byte x [ idx#15 idx#4 idx#5 ]
reg byte x [ idx#3 ]
zp[2]:4 [ print_person::$1 ]
zp[2]:6 [ print_person::$2 ]
