(byte) MOS6526_CIA::INTERRUPT
(byte) MOS6526_CIA::PORT_A
(byte) MOS6526_CIA::PORT_A_DDR
(byte) MOS6526_CIA::PORT_B
(byte) MOS6526_CIA::PORT_B_DDR
(byte) MOS6526_CIA::SERIAL_DATA
(word) MOS6526_CIA::TIMER_A
(byte) MOS6526_CIA::TIMER_A_CONTROL
(word) MOS6526_CIA::TIMER_B
(byte) MOS6526_CIA::TIMER_B_CONTROL
(byte) MOS6526_CIA::TOD_10THS
(byte) MOS6526_CIA::TOD_HOURS
(byte) MOS6526_CIA::TOD_MIN
(byte) MOS6526_CIA::TOD_SEC
(byte) MOS6569_VICII::BG_COLOR
(byte) MOS6569_VICII::BG_COLOR1
(byte) MOS6569_VICII::BG_COLOR2
(byte) MOS6569_VICII::BG_COLOR3
(byte) MOS6569_VICII::BORDER_COLOR
(byte) MOS6569_VICII::CONTROL1
(byte) MOS6569_VICII::CONTROL2
(byte) MOS6569_VICII::IRQ_ENABLE
(byte) MOS6569_VICII::IRQ_STATUS
(byte) MOS6569_VICII::LIGHTPEN_X
(byte) MOS6569_VICII::LIGHTPEN_Y
(byte) MOS6569_VICII::MEMORY
(byte) MOS6569_VICII::RASTER
(byte) MOS6569_VICII::SPRITE0_COLOR
(byte) MOS6569_VICII::SPRITE0_X
(byte) MOS6569_VICII::SPRITE0_Y
(byte) MOS6569_VICII::SPRITE1_COLOR
(byte) MOS6569_VICII::SPRITE1_X
(byte) MOS6569_VICII::SPRITE1_Y
(byte) MOS6569_VICII::SPRITE2_COLOR
(byte) MOS6569_VICII::SPRITE2_X
(byte) MOS6569_VICII::SPRITE2_Y
(byte) MOS6569_VICII::SPRITE3_COLOR
(byte) MOS6569_VICII::SPRITE3_X
(byte) MOS6569_VICII::SPRITE3_Y
(byte) MOS6569_VICII::SPRITE4_COLOR
(byte) MOS6569_VICII::SPRITE4_X
(byte) MOS6569_VICII::SPRITE4_Y
(byte) MOS6569_VICII::SPRITE5_COLOR
(byte) MOS6569_VICII::SPRITE5_X
(byte) MOS6569_VICII::SPRITE5_Y
(byte) MOS6569_VICII::SPRITE6_COLOR
(byte) MOS6569_VICII::SPRITE6_X
(byte) MOS6569_VICII::SPRITE6_Y
(byte) MOS6569_VICII::SPRITE7_COLOR
(byte) MOS6569_VICII::SPRITE7_X
(byte) MOS6569_VICII::SPRITE7_Y
(byte) MOS6569_VICII::SPRITES_BG_COLLISION
(byte) MOS6569_VICII::SPRITES_COLLISION
(byte) MOS6569_VICII::SPRITES_ENABLE
(byte) MOS6569_VICII::SPRITES_EXPAND_X
(byte) MOS6569_VICII::SPRITES_EXPAND_Y
(byte) MOS6569_VICII::SPRITES_MC
(byte) MOS6569_VICII::SPRITES_MCOLOR1
(byte) MOS6569_VICII::SPRITES_MCOLOR2
(byte) MOS6569_VICII::SPRITES_PRIORITY
(byte) MOS6569_VICII::SPRITES_XMSB
(byte) MOS6581_SID::CH1_ATTACK_DECAY
(byte) MOS6581_SID::CH1_CONTROL
(word) MOS6581_SID::CH1_FREQ
(word) MOS6581_SID::CH1_PULSE_WIDTH
(byte) MOS6581_SID::CH1_SUSTAIN_RELEASE
(byte) MOS6581_SID::CH2_ATTACK_DECAY
(byte) MOS6581_SID::CH2_CONTROL
(word) MOS6581_SID::CH2_FREQ
(word) MOS6581_SID::CH2_PULSE_WIDTH
(byte) MOS6581_SID::CH2_SUSTAIN_RELEASE
(byte) MOS6581_SID::CH3_ATTACK_DECAY
(byte) MOS6581_SID::CH3_CONTROL
(byte) MOS6581_SID::CH3_ENV
(word) MOS6581_SID::CH3_FREQ
(byte) MOS6581_SID::CH3_OSC
(word) MOS6581_SID::CH3_PULSE_WIDTH
(byte) MOS6581_SID::CH3_SUSTAIN_RELEASE
(byte) MOS6581_SID::FILTER_CUTOFF_HIGH
(byte) MOS6581_SID::FILTER_CUTOFF_LOW
(byte) MOS6581_SID::FILTER_SETUP
(byte) MOS6581_SID::POT_X
(byte) MOS6581_SID::POT_Y
(byte) MOS6581_SID::VOLUME_FILTER_MODE
(void()) draw_window((byte) draw_window::x1 , (byte) draw_window::y1 , (byte) draw_window::x2 , (byte) draw_window::y2)
(word~) draw_window::$14 zp[2]:35 200002.0
(word~) draw_window::$15 zp[2]:37 200002.0
(word~) draw_window::$19 zp[2]:33 200002.0
(word~) draw_window::$2 zp[2]:23 2002.0
(word~) draw_window::$20 zp[2]:31 200002.0
(word~) draw_window::$26 zp[2]:29 2000002.0
(byte*~) draw_window::$27 zp[2]:35 200002.0
(byte*~) draw_window::$28 zp[2]:37 200002.0
(byte*~) draw_window::$29 zp[2]:23 2002.0
(word~) draw_window::$3 zp[2]:19 2002.0
(byte*~) draw_window::$30 zp[2]:19 2002.0
(byte*~) draw_window::$31 zp[2]:33 200002.0
(byte*~) draw_window::$32 zp[2]:31 200002.0
(byte*~) draw_window::$33 zp[2]:25 2002.0
(byte*~) draw_window::$34 zp[2]:21 2002.0
(byte*~) draw_window::$35 zp[2]:29 2000002.0
(byte~) draw_window::$36 reg byte a 2002.0
(byte~) draw_window::$37 reg byte a 2002.0
(byte~) draw_window::$39 reg byte a 2002.0
(word~) draw_window::$4 zp[2]:25 2002.0
(byte~) draw_window::$40 reg byte a 2002.0
(byte~) draw_window::$42 reg byte a 200002.0
(byte~) draw_window::$43 reg byte a 200002.0
(byte~) draw_window::$45 reg byte a 200002.0
(byte~) draw_window::$46 reg byte a 200002.0
(word~) draw_window::$5 zp[2]:21 2002.0
(byte~) draw_window::$6 reg byte x 1001.0
(byte~) draw_window::$8 reg byte a 1001.0
(label) draw_window::@1
(label) draw_window::@10
(label) draw_window::@11
(label) draw_window::@12
(label) draw_window::@13
(label) draw_window::@2
(label) draw_window::@3
(label) draw_window::@4
(label) draw_window::@5
(label) draw_window::@6
(label) draw_window::@7
(label) draw_window::@8
(label) draw_window::@9
(label) draw_window::@return
(word) draw_window::q
(word) draw_window::q#0 q zp[2]:21 3121.3333333333335
(byte) draw_window::x
(byte) draw_window::x#0 reg byte x 2002.0
(byte) draw_window::x#1 reg byte x 200002.0
(byte) draw_window::x#2 reg byte x 62625.75
(byte) draw_window::x1
(byte) draw_window::x1#0 x1 zp[1]:2 3239.7936507936506
(byte) draw_window::x2
(byte) draw_window::x2#0 x2 zp[1]:6 19723.06557377049
(byte) draw_window::x3
(byte) draw_window::x3#0 reg byte x 200002.0
(byte) draw_window::x3#1 reg byte x 2000002.0
(byte) draw_window::x3#2 reg byte x 820001.0
(byte) draw_window::y
(byte) draw_window::y#0 reg byte x 2002.0
(byte) draw_window::y#1 reg byte x 200002.0
(byte) draw_window::y#2 reg byte x 45546.0
(byte) draw_window::y1
(byte) draw_window::y1#0 y1 zp[1]:5 106.37500000000001
(byte) draw_window::y2
(byte) draw_window::y2#0 y2 zp[1]:7 3385.1000000000004
(byte) draw_window::y3
(byte) draw_window::y3#0 y3 zp[1]:18 2002.0
(byte) draw_window::y3#1 y3 zp[1]:18 200002.0
(byte) draw_window::y3#2 y3 zp[1]:18 41750.49999999999
(word) draw_window::z
(word) draw_window::z#0 z zp[2]:19 6059.058823529412
(word) draw_window::z#1 z_1 zp[2]:31 75000.75
(word) draw_window::z#2 z_2 zp[2]:27 137500.25
(void()) main()
(byte~) main::$4 reg byte a 22.0
(label) main::@1
(label) main::@2
(label) main::@3
(label) main::@4
(label) main::@5
(label) main::@6
(label) main::@7
(label) main::@8
(label) main::@9
(word) main::wait
(word) main::wait#1 wait zp[2]:3 202.0
(word) main::wait#2 wait zp[2]:3 151.5
(byte) main::x
(byte) main::x#1 x zp[1]:2 22.0
(byte) main::x#2 x zp[1]:2 8.0
(const nomodify byte*) screen = (byte*) 1024
(const to_nomodify byte*) text[]  = (byte*) "this is a small test with word wrap, if a word is too long it moves it to the next line. isn't that supercalifragilisticexpialidocious? i think it's cool!"
(const to_nomodify byte*) text2[]  = (byte*) "textbox by scan of desire"
(void()) textbox((byte) textbox::x1 , (byte) textbox::y1 , (byte) textbox::x2 , (byte) textbox::y2 , (byte*) textbox::text)
(byte~) textbox::$15 reg byte y 10001.0
(byte~) textbox::$17 zp[1]:18 10001.0
(word~) textbox::$31 zp[2]:12 151.5
(byte*~) textbox::$32 zp[2]:16 20002.0
(word~) textbox::$33 zp[2]:14 202.0
(word~) textbox::$34 zp[2]:12 202.0
(byte~) textbox::$36 reg byte a 20002.0
(byte~) textbox::$37 reg byte a 20002.0
(byte~) textbox::$39 reg byte a 20002.0
(byte~) textbox::$40 reg byte a 20002.0
(word~) textbox::$8 zp[2]:16 20002.0
(label) textbox::@1
(label) textbox::@10
(label) textbox::@11
(label) textbox::@12
(label) textbox::@13
(label) textbox::@14
(label) textbox::@15
(label) textbox::@2
(label) textbox::@3
(label) textbox::@4
(label) textbox::@5
(label) textbox::@6
(label) textbox::@7
(label) textbox::@8
(label) textbox::@9
(label) textbox::@return
(byte) textbox::c
(byte) textbox::c#1 reg byte x 200002.0
(byte) textbox::c#2 reg byte x 31429.142857142855
(byte) textbox::i
(byte) textbox::i#1 i zp[1]:10 2727.5454545454545
(byte) textbox::i#2 i zp[1]:10 2272.9545454545455
(byte) textbox::ls
(byte) textbox::ls#0 reg byte y 20002.0
(byte) textbox::ls#1 reg byte y 100001.0
(byte) textbox::ls#2 reg byte y 136668.3333333333
(byte*) textbox::text
(byte*) textbox::text#12 text zp[2]:8 4893.723404255319
(byte) textbox::x
(byte) textbox::x#0 x zp[1]:11 43.285714285714285
(byte) textbox::x#1 x zp[1]:11 15001.5
(byte) textbox::x#10 x zp[1]:11 3579.000000000001
(byte) textbox::x#12 x zp[1]:11 3333.6666666666665
(byte) textbox::x#17 x zp[1]:11 20002.0
(byte) textbox::x#5 x zp[1]:11 20002.0
(byte) textbox::x#7 x zp[1]:11 15001.5
(byte) textbox::x1
(byte) textbox::x1#0 x1 zp[1]:2 11.0
(byte) textbox::x1#4 x1 zp[1]:2 642.8936170212767
(byte) textbox::x2
(byte) textbox::x2#0 x2 zp[1]:6 5.5
(byte) textbox::x2#4 x2 zp[1]:6 642.8936170212767
(byte) textbox::y
(byte) textbox::y#0 y zp[1]:5 37.875
(byte) textbox::y#1 y zp[1]:5 8334.166666666666
(byte) textbox::y#11 y zp[1]:5 15001.5
(byte) textbox::y#12 y zp[1]:5 2673.666666666667
(byte) textbox::y#2 y zp[1]:5 10001.0
(byte) textbox::y#5 y zp[1]:5 10001.0
(byte) textbox::y1
(byte) textbox::y1#0 y1 zp[1]:5 22.0
(byte) textbox::y1#4 y1 zp[1]:5 35.5
(byte) textbox::y2
(byte) textbox::y2#0 y2 zp[1]:7 7.333333333333333
(byte) textbox::y2#4 y2 zp[1]:7 430.10638297872345
(word) textbox::z
(word) textbox::z#0 z zp[2]:12 67.33333333333333
(word) textbox::z#1 z zp[2]:12 10001.0
(word) textbox::z#2 z zp[2]:12 20002.0
(word) textbox::z#3 z zp[2]:12 2864.642857142858
(word) textbox::z#4 z zp[2]:12 15001.5
(word) textbox::z#5 z zp[2]:12 10001.0

zp[1]:2 [ main::x#2 main::x#1 textbox::x1#4 textbox::x1#0 draw_window::x1#0 ]
zp[2]:3 [ main::wait#2 main::wait#1 ]
zp[1]:5 [ textbox::y1#4 textbox::y1#0 textbox::y#5 textbox::y#12 textbox::y#0 textbox::y#11 textbox::y#1 textbox::y#2 draw_window::y1#0 ]
zp[1]:6 [ textbox::x2#4 textbox::x2#0 draw_window::x2#0 ]
zp[1]:7 [ textbox::y2#4 textbox::y2#0 draw_window::y2#0 ]
zp[2]:8 [ textbox::text#12 ]
zp[1]:10 [ textbox::i#2 textbox::i#1 ]
reg byte y [ textbox::ls#2 textbox::ls#0 textbox::ls#1 ]
reg byte x [ textbox::c#2 textbox::c#1 ]
zp[1]:11 [ textbox::x#5 textbox::x#10 textbox::x#0 textbox::x#7 textbox::x#17 textbox::x#1 textbox::x#12 ]
zp[2]:12 [ textbox::z#5 textbox::z#3 textbox::z#0 textbox::z#4 textbox::z#1 textbox::z#2 textbox::$34 textbox::$31 ]
reg byte x [ draw_window::x#2 draw_window::x#0 draw_window::x#1 ]
reg byte x [ draw_window::y#2 draw_window::y#0 draw_window::y#1 ]
reg byte x [ draw_window::x3#2 draw_window::x3#1 draw_window::x3#0 ]
reg byte a [ main::$4 ]
zp[2]:14 [ textbox::$33 ]
zp[2]:16 [ textbox::$8 textbox::$32 ]
reg byte y [ textbox::$15 ]
zp[1]:18 [ textbox::$17 draw_window::y3#2 draw_window::y3#1 draw_window::y3#0 ]
reg byte a [ textbox::$39 ]
reg byte a [ textbox::$40 ]
reg byte a [ textbox::$36 ]
reg byte a [ textbox::$37 ]
reg byte a [ draw_window::$36 ]
reg byte a [ draw_window::$37 ]
zp[2]:19 [ draw_window::z#0 draw_window::$3 draw_window::$30 ]
reg byte a [ draw_window::$39 ]
reg byte a [ draw_window::$40 ]
zp[2]:21 [ draw_window::q#0 draw_window::$5 draw_window::$34 ]
zp[2]:23 [ draw_window::$2 draw_window::$29 ]
zp[2]:25 [ draw_window::$4 draw_window::$33 ]
reg byte x [ draw_window::$6 ]
reg byte a [ draw_window::$8 ]
reg byte a [ draw_window::$45 ]
reg byte a [ draw_window::$46 ]
zp[2]:27 [ draw_window::z#2 ]
zp[2]:29 [ draw_window::$26 draw_window::$35 ]
reg byte a [ draw_window::$42 ]
reg byte a [ draw_window::$43 ]
zp[2]:31 [ draw_window::z#1 draw_window::$20 draw_window::$32 ]
zp[2]:33 [ draw_window::$19 draw_window::$31 ]
zp[2]:35 [ draw_window::$14 draw_window::$27 ]
zp[2]:37 [ draw_window::$15 draw_window::$28 ]
