(const byte) TYPEID_BOOL = (number) 7
(const byte) TYPEID_BYTE = (number) 1
(const byte) TYPEID_DWORD = (number) 5
(const byte) TYPEID_POINTER_BOOL = (number) $17
(const byte) TYPEID_POINTER_BYTE = (number) $11
(const byte) TYPEID_POINTER_DWORD = (number) $15
(const byte) TYPEID_POINTER_POINTER_BYTE = (number) $21
(const byte) TYPEID_POINTER_PROCEDURE = (number) $1f
(const byte) TYPEID_POINTER_SIGNED_BYTE = (number) $12
(const byte) TYPEID_POINTER_SIGNED_DWORD = (number) $16
(const byte) TYPEID_POINTER_SIGNED_WORD = (number) $14
(const byte) TYPEID_POINTER_WORD = (number) $13
(const byte) TYPEID_SIGNED_BYTE = (number) 2
(const byte) TYPEID_SIGNED_DWORD = (number) 6
(const byte) TYPEID_SIGNED_WORD = (number) 4
(const byte) TYPEID_VOID = (number) 0
(const byte) TYPEID_WORD = (number) 3
(void()) main()
(label) main::@return
(const nomodify byte*) main::SCREEN = (byte*) 1024
(byte) main::idx

