(void()) main()
(label) main::@1
(label) main::@1_1
(label) main::@1_10
(label) main::@1_2
(label) main::@1_3
(label) main::@1_4
(label) main::@1_5
(label) main::@1_6
(label) main::@1_7
(label) main::@1_8
(label) main::@1_9
(label) main::@2
(label) main::@return
(const byte*) main::SCREEN = (byte*) 1024
(byte) main::a

