(void()) main()
(label) main::@1
(label) main::@return
(word) main::b
(word) main::b#1 b zp[2]:2 7.333333333333333
(word) main::b#2 b zp[2]:2 22.0
(byte) main::i
(byte) main::i#1 reg byte x 16.5
(byte) main::i#2 reg byte x 11.0

zp[2]:2 [ main::b#2 main::b#1 ]
reg byte x [ main::i#2 main::i#1 ]
