(const byte) SIZEOF_WORD = (byte) 2
(void()) main()
(byte~) main::$0 reg byte a 22.0
(byte~) main::$1 reg byte a 22.0
(label) main::@1
(label) main::@return
(const nomodify byte*) main::SCREEN = (byte*) 1024
(byte) main::i
(byte) main::i#1 reg byte x 16.5
(byte) main::i#2 reg byte x 2.2
(byte) main::idx
(byte) main::idx#1 reg byte y 11.0
(byte) main::idx#2 reg byte a 22.0
(byte) main::idx#3 idx zp[1]:4 7.333333333333333
(byte) main::idx#4 idx zp[1]:4 6.6000000000000005
(word) main::w
(word) main::w#0 w zp[2]:5 6.6000000000000005
(const word*) main::words[]  = { (word) $3130, (word) $3332, (word) $3534, (word) $3736 }
(word*) main::wp
(word*) main::wp#1 wp zp[2]:2 2.2
(word*) main::wp#2 wp zp[2]:2 16.5

zp[2]:2 [ main::wp#2 main::wp#1 ]
zp[1]:4 [ main::idx#4 main::idx#3 ]
reg byte x [ main::i#2 main::i#1 ]
zp[2]:5 [ main::w#0 ]
reg byte a [ main::$0 ]
reg byte y [ main::idx#1 ]
reg byte a [ main::$1 ]
reg byte a [ main::idx#2 ]
