(const nomodify byte*) CHARGEN = (byte*) 53248
(const nomodify byte*) CHARSET_DEFAULT = (byte*) 4096
(const nomodify struct MOS6526_CIA*) CIA1 = (struct MOS6526_CIA*) 56320
(const nomodify byte) CIA_INTERRUPT_CLEAR = (byte) $7f
(const nomodify byte*) D018 = (byte*) 53272
(const byte*) FONT[(number) $800]  = { fill( $800, 0) }
(const nomodify byte*) IRQ_ENABLE = (byte*) 53274
(const nomodify byte) IRQ_RASTER = (byte) 1
(const nomodify byte*) IRQ_STATUS = (byte*) 53273
(const nomodify void()**) KERNEL_IRQ = (void()**) 788
(byte) MOS6526_CIA::INTERRUPT
(byte) MOS6526_CIA::PORT_A
(byte) MOS6526_CIA::PORT_A_DDR
(byte) MOS6526_CIA::PORT_B
(byte) MOS6526_CIA::PORT_B_DDR
(byte) MOS6526_CIA::SERIAL_DATA
(word) MOS6526_CIA::TIMER_A
(byte) MOS6526_CIA::TIMER_A_CONTROL
(word) MOS6526_CIA::TIMER_B
(byte) MOS6526_CIA::TIMER_B_CONTROL
(byte) MOS6526_CIA::TOD_10THS
(byte) MOS6526_CIA::TOD_HOURS
(byte) MOS6526_CIA::TOD_MIN
(byte) MOS6526_CIA::TOD_SEC
(byte) MOS6569_VICII::BG_COLOR
(byte) MOS6569_VICII::BG_COLOR1
(byte) MOS6569_VICII::BG_COLOR2
(byte) MOS6569_VICII::BG_COLOR3
(byte) MOS6569_VICII::BORDER_COLOR
(byte) MOS6569_VICII::CONTROL1
(byte) MOS6569_VICII::CONTROL2
(byte) MOS6569_VICII::IRQ_ENABLE
(byte) MOS6569_VICII::IRQ_STATUS
(byte) MOS6569_VICII::LIGHTPEN_X
(byte) MOS6569_VICII::LIGHTPEN_Y
(byte) MOS6569_VICII::MEMORY
(byte) MOS6569_VICII::RASTER
(byte) MOS6569_VICII::SPRITE0_COLOR
(byte) MOS6569_VICII::SPRITE0_X
(byte) MOS6569_VICII::SPRITE0_Y
(byte) MOS6569_VICII::SPRITE1_COLOR
(byte) MOS6569_VICII::SPRITE1_X
(byte) MOS6569_VICII::SPRITE1_Y
(byte) MOS6569_VICII::SPRITE2_COLOR
(byte) MOS6569_VICII::SPRITE2_X
(byte) MOS6569_VICII::SPRITE2_Y
(byte) MOS6569_VICII::SPRITE3_COLOR
(byte) MOS6569_VICII::SPRITE3_X
(byte) MOS6569_VICII::SPRITE3_Y
(byte) MOS6569_VICII::SPRITE4_COLOR
(byte) MOS6569_VICII::SPRITE4_X
(byte) MOS6569_VICII::SPRITE4_Y
(byte) MOS6569_VICII::SPRITE5_COLOR
(byte) MOS6569_VICII::SPRITE5_X
(byte) MOS6569_VICII::SPRITE5_Y
(byte) MOS6569_VICII::SPRITE6_COLOR
(byte) MOS6569_VICII::SPRITE6_X
(byte) MOS6569_VICII::SPRITE6_Y
(byte) MOS6569_VICII::SPRITE7_COLOR
(byte) MOS6569_VICII::SPRITE7_X
(byte) MOS6569_VICII::SPRITE7_Y
(byte) MOS6569_VICII::SPRITES_BG_COLLISION
(byte) MOS6569_VICII::SPRITES_COLLISION
(byte) MOS6569_VICII::SPRITES_ENABLE
(byte) MOS6569_VICII::SPRITES_EXPAND_X
(byte) MOS6569_VICII::SPRITES_EXPAND_Y
(byte) MOS6569_VICII::SPRITES_MC
(byte) MOS6569_VICII::SPRITES_MCOLOR1
(byte) MOS6569_VICII::SPRITES_MCOLOR2
(byte) MOS6569_VICII::SPRITES_PRIORITY
(byte) MOS6569_VICII::SPRITES_XMSB
(byte) MOS6581_SID::CH1_ATTACK_DECAY
(byte) MOS6581_SID::CH1_CONTROL
(word) MOS6581_SID::CH1_FREQ
(word) MOS6581_SID::CH1_PULSE_WIDTH
(byte) MOS6581_SID::CH1_SUSTAIN_RELEASE
(byte) MOS6581_SID::CH2_ATTACK_DECAY
(byte) MOS6581_SID::CH2_CONTROL
(word) MOS6581_SID::CH2_FREQ
(word) MOS6581_SID::CH2_PULSE_WIDTH
(byte) MOS6581_SID::CH2_SUSTAIN_RELEASE
(byte) MOS6581_SID::CH3_ATTACK_DECAY
(byte) MOS6581_SID::CH3_CONTROL
(byte) MOS6581_SID::CH3_ENV
(word) MOS6581_SID::CH3_FREQ
(byte) MOS6581_SID::CH3_OSC
(word) MOS6581_SID::CH3_PULSE_WIDTH
(byte) MOS6581_SID::CH3_SUSTAIN_RELEASE
(byte) MOS6581_SID::FILTER_CUTOFF_HIGH
(byte) MOS6581_SID::FILTER_CUTOFF_LOW
(byte) MOS6581_SID::FILTER_SETUP
(byte) MOS6581_SID::POT_X
(byte) MOS6581_SID::POT_Y
(byte) MOS6581_SID::VOLUME_FILTER_MODE
(const byte) OFFSET_STRUCT_MOS6526_CIA_INTERRUPT = (byte) $d
(const nomodify byte) PLEX_COUNT = (byte) $20
(const byte*) PLEX_FREE_YPOS[(number) 8]  = { fill( 8, 0) }
(const byte*) PLEX_PTR[(const nomodify byte) PLEX_COUNT]  = { fill( PLEX_COUNT, 0) }
(byte*) PLEX_SCREEN_PTR
(byte*) PLEX_SCREEN_PTR#31 PLEX_SCREEN_PTR zp[2]:2 2.9705882352941178
(const byte*) PLEX_SORTED_IDX[(const nomodify byte) PLEX_COUNT]  = { fill( PLEX_COUNT, 0) }
(const word*) PLEX_XPOS[(const nomodify byte) PLEX_COUNT]  = { fill( PLEX_COUNT, 0) }
(const byte*) PLEX_YPOS[(const nomodify byte) PLEX_COUNT]  = { fill( PLEX_COUNT, 0) }
(const nomodify byte*) PROCPORT = (byte*) 1
(const nomodify byte) PROCPORT_BASIC_KERNEL_IO = (byte) 7
(const nomodify byte) PROCPORT_RAM_CHARROM = (byte) 1
(const nomodify byte*) RASTER = (byte*) 53266
(const nomodify byte*) SCREEN = (byte*) 1024
(const byte*) SCROLL_TEXT[]  = (byte*) "camelot presents a spanking new contribution to the always hungry c64 scene. in this time of the corona virus we have chosen to direct our efforts towards the safe haven of coding, pixeling and composing for our beloved old breadbin.      "
(const nomodify byte*) SPRITES = (byte*) 12288
(const nomodify byte*) SPRITES_COLOR = (byte*) 53287
(const nomodify byte*) SPRITES_ENABLE = (byte*) 53269
(const nomodify byte*) SPRITES_XMSB = (byte*) 53264
(const nomodify byte*) SPRITES_XPOS = (byte*) 53248
(const nomodify byte*) SPRITES_YPOS = (byte*) 53249
(byte) SPRITE_0
(const byte) SPRITE_0#0 SPRITE_0 = (byte)(word)(const nomodify byte*) SPRITES/(byte) $40
(const nomodify byte*) VIC_CONTROL = (byte*) 53265
(const nomodify byte) WHITE = (byte) 1
(const byte*) XMOVEMENT[(number) $200]  = kickasm {{ //.lohifill $100, round(344-i*344/$100-86*sin(toRadians(360*i/$100)))
    //.lohifill $100, round(344-i*344/$100-129*sin(toRadians(360*i/$100)))
    .lohifill $100, round(344-i*344/$100 -86*sin(toRadians(360*i/$100)) -43*sin(toRadians(360*i/$80)))
    //.lohifill $100, round(344-i*344/$100-86*sin(toRadians(360*i/$80)))
 }}
(const nomodify byte*) XMOVEMENT_HI = (const byte*) XMOVEMENT+(word) $100
(const byte*) YSIN[(number) $100]  = kickasm {{ .fill $100, round(142+89.5*sin(toRadians(360*i/256)))
 }}
(void()) __start()
(label) __start::@1
(label) __start::@return
(label) __start::__init1
(label) __start::__init1_@1
(label) __start::__init1_toSpritePtr1
(byte) __start::__init1_toSpritePtr1_return
(byte*) __start::__init1_toSpritePtr1_sprite
(void()) font_2x2((byte*) font_2x2::font_original , (byte*) font_2x2::font_2x2)
(byte~) font_2x2::$1 reg byte a 200002.0
(byte~) font_2x2::$11 reg byte y 20002.0
(byte~) font_2x2::$12 reg byte a 10001.0
(byte~) font_2x2::$14 reg byte y 20002.0
(byte~) font_2x2::$15 reg byte a 10001.0
(word~) font_2x2::$5 zp[2]:23 200002.0
(word~) font_2x2::$7 zp[2]:23 200002.0
(label) font_2x2::@1
(label) font_2x2::@2
(label) font_2x2::@3
(label) font_2x2::@4
(label) font_2x2::@5
(label) font_2x2::@6
(label) font_2x2::@7
(label) font_2x2::@8
(label) font_2x2::@9
(label) font_2x2::@return
(byte) font_2x2::b
(byte) font_2x2::b#1 reg byte y 150001.5
(byte) font_2x2::b#2 reg byte y 20000.2
(byte) font_2x2::c
(byte) font_2x2::c#1 c zp[1]:16 1501.5
(byte) font_2x2::c#11 c zp[1]:16 58.88235294117647
(byte*) font_2x2::font_2x2
(byte*) font_2x2::font_original
(byte) font_2x2::glyph_bit
(byte) font_2x2::glyph_bit#0 reg byte x 50000.5
(byte) font_2x2::glyph_bits
(byte) font_2x2::glyph_bits#0 glyph_bits zp[1]:13 20002.0
(byte) font_2x2::glyph_bits#1 glyph_bits zp[1]:13 66667.33333333333
(byte) font_2x2::glyph_bits#2 glyph_bits zp[1]:13 34444.88888888889
(word) font_2x2::glyph_bits_2x2
(word) font_2x2::glyph_bits_2x2#1 glyph_bits_2x2 zp[2]:23 200002.0
(word) font_2x2::glyph_bits_2x2#2 glyph_bits_2x2 zp[2]:23 27500.5
(word) font_2x2::glyph_bits_2x2#3 glyph_bits_2x2 zp[2]:23 40000.4
(byte) font_2x2::l
(byte) font_2x2::l#1 l zp[1]:29 15001.5
(byte) font_2x2::l#2 l zp[1]:29 1111.2222222222222
(byte) font_2x2::l2
(byte) font_2x2::l2#1 l2 zp[1]:28 15001.5
(byte) font_2x2::l2#8 l2 zp[1]:28 2727.5454545454545
(byte) font_2x2::l2#9 l2 zp[1]:28 6667.333333333333
(byte*) font_2x2::next_2x2
(byte*) font_2x2::next_2x2#1 next_2x2 zp[2]:26 500.5
(byte*) font_2x2::next_2x2_left
(byte*) font_2x2::next_2x2_left#0 next_2x2_left zp[2]:26 750.1875
(byte*) font_2x2::next_2x2_left#1 next_2x2_left_1 zp[2]:7 10001.0
(byte*) font_2x2::next_2x2_left#10 next_2x2_left_1 zp[2]:7 2002.0
(byte*) font_2x2::next_2x2_left#7 next_2x2_left_1 zp[2]:7 1708.5416666666665
(byte*) font_2x2::next_2x2_left#8 next_2x2_left_1 zp[2]:7 10001.0
(byte*) font_2x2::next_2x2_right
(byte*) font_2x2::next_2x2_right#0 next_2x2_right zp[2]:9 1001.0
(byte*) font_2x2::next_2x2_right#1 next_2x2_right zp[2]:9 20002.0
(byte*) font_2x2::next_2x2_right#7 next_2x2_right zp[2]:9 1708.5416666666665
(byte*) font_2x2::next_2x2_right#8 next_2x2_right zp[2]:9 10001.0
(byte*) font_2x2::next_original
(byte*) font_2x2::next_original#1 next_original zp[2]:5 667.3333333333334
(byte*) font_2x2::next_original#4 next_original zp[2]:5 363.7272727272727
(void()) font_2x2_to_sprites((byte*) font_2x2_to_sprites::font_2x2 , (byte*) font_2x2_to_sprites::sprites , (byte) font_2x2_to_sprites::num_chars)
(byte~) font_2x2_to_sprites::$3 zp[1]:28 10001.0
(label) font_2x2_to_sprites::@1
(label) font_2x2_to_sprites::@2
(label) font_2x2_to_sprites::@3
(label) font_2x2_to_sprites::@4
(label) font_2x2_to_sprites::@5
(label) font_2x2_to_sprites::@6
(label) font_2x2_to_sprites::@7
(label) font_2x2_to_sprites::@8
(label) font_2x2_to_sprites::@return
(byte) font_2x2_to_sprites::c
(byte) font_2x2_to_sprites::c#1 c zp[1]:16 2002.0
(byte) font_2x2_to_sprites::c#2 c zp[1]:16 136.5
(byte*) font_2x2_to_sprites::char_current
(byte*) font_2x2_to_sprites::char_current#1 char_current zp[2]:26 667.3333333333334
(byte*) font_2x2_to_sprites::char_current#2 char_current zp[2]:26 1200.3
(byte*) font_2x2_to_sprites::char_left
(byte*) font_2x2_to_sprites::char_left#1 char_left zp[2]:7 10001.0
(byte*) font_2x2_to_sprites::char_left#3 char_left zp[2]:7 2818.5454545454545
(byte*) font_2x2_to_sprites::char_left#4 char_left zp[2]:7 10001.0
(byte*) font_2x2_to_sprites::char_left#6 char_left zp[2]:7 2002.0
(byte*) font_2x2_to_sprites::char_right
(byte*) font_2x2_to_sprites::char_right#0 char_right zp[2]:9 1001.0
(byte*) font_2x2_to_sprites::char_right#1 char_right zp[2]:9 20002.0
(byte*) font_2x2_to_sprites::char_right#3 char_right zp[2]:9 2818.5454545454545
(byte*) font_2x2_to_sprites::char_right#4 char_right zp[2]:9 10001.0
(byte*) font_2x2_to_sprites::font_2x2
(byte) font_2x2_to_sprites::i
(byte) font_2x2_to_sprites::i#1 reg byte x 15001.5
(byte) font_2x2_to_sprites::i#2 reg byte x 3571.7857142857147
(byte) font_2x2_to_sprites::num_chars
(const byte) font_2x2_to_sprites::num_chars#0 num_chars = (byte) $40
(byte*) font_2x2_to_sprites::sprite
(byte*) font_2x2_to_sprites::sprite#1 sprite zp[2]:5 1001.0
(byte*) font_2x2_to_sprites::sprite#4 sprite zp[2]:5 1524.047619047619
(byte) font_2x2_to_sprites::sprite_idx
(byte) font_2x2_to_sprites::sprite_idx#1 sprite_idx zp[1]:29 15001.5
(byte) font_2x2_to_sprites::sprite_idx#2 reg byte y 15001.5
(byte) font_2x2_to_sprites::sprite_idx#3 sprite_idx zp[1]:29 2222.4444444444443
(byte) font_2x2_to_sprites::sprite_idx#4 sprite_idx zp[1]:29 10001.0
(byte*) font_2x2_to_sprites::sprites
(volatile bool) frame_done loadstore zp[1]:21 26.333333333333332
(void()) main()
(byte~) main::$12 reg byte y 101.0
(word~) main::$13 zp[2]:23 202.0
(label) main::@1
(label) main::@10
(label) main::@11
(label) main::@12
(label) main::@13
(label) main::@2
(label) main::@3
(label) main::@4
(label) main::@5
(label) main::@6
(label) main::@7
(label) main::@8
(label) main::@9
(byte) main::s
(byte) main::s#1 s zp[1]:4 202.0
(byte) main::s#2 s zp[1]:4 72.14285714285714
(byte) main::s1
(byte) main::s1#1 reg byte x 151.5
(byte) main::s1#2 reg byte x 151.5
(label) main::toD0181
(byte*) main::toD0181_gfx
(byte) main::toD0181_return
(const byte) main::toD0181_return#0 toD0181_return = >(word)(const nomodify byte*) SCREEN&(word) $3fff*(byte) 4|>(word)(const nomodify byte*) CHARSET_DEFAULT/(byte) 4&(byte) $f
(byte*) main::toD0181_screen
(byte) main::x
(byte) main::x#1 reg byte x 101.0
(byte) main::x#2 reg byte x 67.33333333333333
(void()) plexInit((byte*) plexInit::screen)
(label) plexInit::@1
(label) plexInit::@return
(byte) plexInit::i
(byte) plexInit::i#1 reg byte x 1501.5
(byte) plexInit::i#2 reg byte x 2002.0
(label) plexInit::plexSetScreen1
(byte*) plexInit::plexSetScreen1_screen
(byte*) plexInit::screen
(void()) plexShowSprite()
(byte~) plexShowSprite::$11 reg byte x 101.0
(byte~) plexShowSprite::$2 reg byte a 202.0
(byte~) plexShowSprite::$3 reg byte a 202.0
(byte~) plexShowSprite::$5 reg byte x 202.0
(byte~) plexShowSprite::$6 reg byte a 202.0
(byte~) plexShowSprite::$9 reg byte a 202.0
(label) plexShowSprite::@1
(label) plexShowSprite::@2
(label) plexShowSprite::@3
(label) plexShowSprite::@4
(label) plexShowSprite::@5
(label) plexShowSprite::@return
(label) plexShowSprite::plexFreeAdd1
(byte~) plexShowSprite::plexFreeAdd1_$0 reg byte a 202.0
(byte~) plexShowSprite::plexFreeAdd1_$1 reg byte a 202.0
(byte~) plexShowSprite::plexFreeAdd1_$2 reg byte a 202.0
(byte) plexShowSprite::plexFreeAdd1_ypos
(byte) plexShowSprite::plexFreeAdd1_ypos#0 reg byte a 151.5
(byte) plexShowSprite::plex_sprite_idx2
(byte) plexShowSprite::plex_sprite_idx2#0 plex_sprite_idx2 zp[1]:25 25.25
(byte) plexShowSprite::xpos_idx
(byte) plexShowSprite::xpos_idx#0 reg byte a 202.0
(byte) plexShowSprite::ypos
(void()) plexSort()
(label) plexSort::@1
(label) plexSort::@2
(label) plexSort::@3
(label) plexSort::@4
(label) plexSort::@5
(label) plexSort::@6
(label) plexSort::@7
(label) plexSort::@return
(byte) plexSort::m
(byte) plexSort::m#1 m zp[1]:16 150001.5
(byte) plexSort::m#2 m zp[1]:16 41667.08333333333
(byte) plexSort::nxt_idx
(byte) plexSort::nxt_idx#0 nxt_idx zp[1]:28 30000.300000000003
(byte) plexSort::nxt_y
(byte) plexSort::nxt_y#0 nxt_y zp[1]:29 150000.375
(label) plexSort::plexFreePrepare1
(label) plexSort::plexFreePrepare1_@1
(label) plexSort::plexFreePrepare1_@2
(byte) plexSort::plexFreePrepare1_s
(byte) plexSort::plexFreePrepare1_s#1 reg byte x 150001.5
(byte) plexSort::plexFreePrepare1_s#2 reg byte x 150001.5
(byte) plexSort::s
(byte) plexSort::s#1 reg byte x 1366668.3333333335
(byte) plexSort::s#2 reg byte x 200002.0
(byte) plexSort::s#3 reg byte x 2050002.5
(byte) plexSort::s#6 reg byte x 200002.0
(volatile byte) plex_free_next loadstore zp[1]:20 41.15625
interrupt(KERNEL_MIN)(void()) plex_irq()
(byte~) plex_irq::$4 zp[1]:22 11.0
(label) plex_irq::@1
(label) plex_irq::@2
(label) plex_irq::@3
(label) plex_irq::@4
(label) plex_irq::@5
(label) plex_irq::@6
(label) plex_irq::@7
(label) plex_irq::@return
(label) plex_irq::plexFreeNextYpos1
(byte) plex_irq::plexFreeNextYpos1_return
(byte) plex_irq::plexFreeNextYpos1_return#0 reg byte x 4.800000000000001
(byte) plex_irq::rasterY
(void()) plex_move()
(byte~) plex_move::$4 reg byte a 200002.0
(byte~) plex_move::$6 reg byte x 100001.0
(word~) plex_move::$7 zp[2]:26 200002.0
(label) plex_move::@1
(label) plex_move::@2
(label) plex_move::@3
(label) plex_move::@4
(label) plex_move::@5
(label) plex_move::@6
(label) plex_move::@return
(byte) plex_move::s
(byte) plex_move::s#1 s zp[1]:13 150001.5
(byte) plex_move::s#2 s zp[1]:13 33333.66666666667
(byte) plex_move::x_idx
(byte) plex_move::x_idx#0 x_idx zp[1]:16 2002.0
(byte) plex_move::x_idx#1 x_idx zp[1]:16 66667.33333333333
(byte) plex_move::x_idx#2 x_idx zp[1]:16 35786.142857142855
(byte) plex_move::y_idx
(byte) plex_move::y_idx#0 y_idx zp[1]:28 1001.0
(byte) plex_move::y_idx#1 y_idx zp[1]:28 13333.466666666667
(byte) plex_move::y_idx#2 y_idx zp[1]:28 150502.0
(volatile byte) plex_show_idx loadstore zp[1]:17 44.73529411764706
(volatile byte) plex_sprite_idx loadstore zp[1]:18 43.96875
(volatile byte) plex_sprite_msb loadstore zp[1]:19 47.32352941176471
(byte*) scroll_text_next
(byte*) scroll_text_next#12 scroll_text_next zp[2]:14 44556.11111111111
(byte*) scroll_text_next#13 scroll_text_next zp[2]:14 100001.0
(byte*) scroll_text_next#14 scroll_text_next zp[2]:14 13048.0
(byte*) scroll_text_next#27 scroll_text_next zp[2]:14 367.33333333333337
(byte*) scroll_text_next#3 scroll_text_next zp[2]:14 200002.0
(byte) x_movement_idx
(byte) x_movement_idx#11 x_movement_idx zp[1]:12 100.14285714285714
(byte) x_movement_idx#13 x_movement_idx zp[1]:12 61.22222222222223
(byte) y_sin_idx
(byte) y_sin_idx#11 y_sin_idx zp[1]:11 105.14999999999999
(byte) y_sin_idx#13 y_sin_idx zp[1]:11 58.0

zp[2]:2 [ PLEX_SCREEN_PTR#31 ]
zp[1]:4 [ main::s#2 main::s#1 ]
reg byte x [ main::x#2 main::x#1 ]
reg byte x [ main::s1#2 main::s1#1 ]
reg byte y [ font_2x2::b#2 font_2x2::b#1 ]
reg byte x [ font_2x2::glyph_bit#0 ]
zp[2]:5 [ font_2x2_to_sprites::sprite#4 font_2x2_to_sprites::sprite#1 font_2x2::next_original#4 font_2x2::next_original#1 ]
reg byte x [ font_2x2_to_sprites::i#2 font_2x2_to_sprites::i#1 ]
zp[2]:7 [ font_2x2_to_sprites::char_left#3 font_2x2_to_sprites::char_left#6 font_2x2_to_sprites::char_left#4 font_2x2_to_sprites::char_left#1 font_2x2::next_2x2_left#7 font_2x2::next_2x2_left#10 font_2x2::next_2x2_left#8 font_2x2::next_2x2_left#1 ]
zp[2]:9 [ font_2x2_to_sprites::char_right#3 font_2x2_to_sprites::char_right#0 font_2x2_to_sprites::char_right#4 font_2x2_to_sprites::char_right#1 font_2x2::next_2x2_right#7 font_2x2::next_2x2_right#0 font_2x2::next_2x2_right#8 font_2x2::next_2x2_right#1 ]
reg byte x [ plexInit::i#2 plexInit::i#1 ]
zp[1]:11 [ y_sin_idx#11 y_sin_idx#13 ]
zp[1]:12 [ x_movement_idx#11 x_movement_idx#13 ]
zp[1]:13 [ plex_move::s#2 plex_move::s#1 font_2x2::glyph_bits#2 font_2x2::glyph_bits#0 font_2x2::glyph_bits#1 ]
zp[2]:14 [ scroll_text_next#13 scroll_text_next#12 scroll_text_next#27 scroll_text_next#14 scroll_text_next#3 ]
zp[1]:16 [ plexSort::m#2 plexSort::m#1 plex_move::x_idx#2 plex_move::x_idx#0 plex_move::x_idx#1 font_2x2_to_sprites::c#2 font_2x2_to_sprites::c#1 font_2x2::c#11 font_2x2::c#1 ]
reg byte x [ plexSort::s#3 plexSort::s#1 plexSort::s#6 ]
reg byte x [ plexSort::plexFreePrepare1_s#2 plexSort::plexFreePrepare1_s#1 ]
zp[1]:17 [ plex_show_idx ]
zp[1]:18 [ plex_sprite_idx ]
zp[1]:19 [ plex_sprite_msb ]
zp[1]:20 [ plex_free_next ]
zp[1]:21 [ frame_done ]
reg byte x [ plex_irq::plexFreeNextYpos1_return#0 ]
zp[1]:22 [ plex_irq::$4 ]
reg byte y [ main::$12 ]
zp[2]:23 [ main::$13 font_2x2::glyph_bits_2x2#3 font_2x2::glyph_bits_2x2#2 font_2x2::$5 font_2x2::$7 font_2x2::glyph_bits_2x2#1 ]
zp[1]:25 [ plexShowSprite::plex_sprite_idx2#0 ]
reg byte a [ plexShowSprite::plexFreeAdd1_ypos#0 ]
reg byte a [ plexShowSprite::plexFreeAdd1_$0 ]
reg byte a [ plexShowSprite::plexFreeAdd1_$1 ]
reg byte a [ plexShowSprite::plexFreeAdd1_$2 ]
reg byte a [ plexShowSprite::xpos_idx#0 ]
reg byte x [ plexShowSprite::$11 ]
reg byte a [ plexShowSprite::$2 ]
reg byte a [ plexShowSprite::$3 ]
reg byte a [ plexShowSprite::$9 ]
reg byte x [ plexShowSprite::$5 ]
reg byte a [ plexShowSprite::$6 ]
reg byte a [ font_2x2::$1 ]
reg byte a [ font_2x2::$12 ]
reg byte y [ font_2x2::$11 ]
reg byte a [ font_2x2::$15 ]
reg byte y [ font_2x2::$14 ]
reg byte y [ font_2x2_to_sprites::sprite_idx#2 ]
reg byte x [ plex_move::$6 ]
zp[2]:26 [ plex_move::$7 font_2x2_to_sprites::char_current#2 font_2x2_to_sprites::char_current#1 font_2x2::next_2x2_left#0 font_2x2::next_2x2#1 ]
reg byte a [ plex_move::$4 ]
zp[1]:28 [ plexSort::nxt_idx#0 font_2x2_to_sprites::$3 plex_move::y_idx#2 plex_move::y_idx#0 plex_move::y_idx#1 font_2x2::l2#8 font_2x2::l2#9 font_2x2::l2#1 ]
zp[1]:29 [ plexSort::nxt_y#0 font_2x2_to_sprites::sprite_idx#4 font_2x2_to_sprites::sprite_idx#3 font_2x2_to_sprites::sprite_idx#1 font_2x2::l#2 font_2x2::l#1 ]
reg byte x [ plexSort::s#2 ]
