(const struct RICOH_2A03*) APU = (struct RICOH_2A03*) 16384
(const byte*) FLAG[]  = { (byte) $54, (byte) $55, (byte) $56, (byte) $57 }
(const byte*) FLOOR[]  = { (byte) $85, (byte) $85, (byte) $86, (byte) $86 }
(const nomodify byte*) FR_COUNTER = (byte*) 16407
(const nomodify byte) JOY_DOWN = (byte) 4
(const nomodify byte) JOY_LEFT = (byte) 2
(const nomodify byte) JOY_RIGHT = (byte) 1
(const nomodify byte) JOY_UP = (byte) 8
(const nomodify byte*) MEMORY = (byte*) 0
(const byte) OFFSET_STRUCT_RICOH_2A03_DMC_FREQ = (byte) $10
(const byte) OFFSET_STRUCT_RICOH_2A03_JOY1 = (byte) $16
(const byte) OFFSET_STRUCT_RICOH_2A03_OAMDMA = (byte) $14
(const byte) OFFSET_STRUCT_RICOH_2C02_OAMADDR = (byte) 3
(const byte) OFFSET_STRUCT_RICOH_2C02_PPUADDR = (byte) 6
(const byte) OFFSET_STRUCT_RICOH_2C02_PPUDATA = (byte) 7
(const byte) OFFSET_STRUCT_RICOH_2C02_PPUMASK = (byte) 1
(const byte) OFFSET_STRUCT_RICOH_2C02_PPUSCROLL = (byte) 5
(const byte) OFFSET_STRUCT_RICOH_2C02_PPUSTATUS = (byte) 2
(const byte) OFFSET_STRUCT_SPRITEDATA_X = (byte) 3
(const byte*) PALETTE[(number) $20]  = { (byte) $11, (byte) $2d, (byte) 8, (byte) $18, (byte) $11, (byte) 6, (byte) $15, (byte) $36, (byte) $11, (byte) $39, (byte) $4a, (byte) $5b, (byte) $f, (byte) $3d, (byte) $4e, (byte) $5f, (byte) $11, (byte) $f, (byte) $30, (byte) 8, (byte) $11, (byte) $f, (byte) $18, (byte) 8, (byte) $11, (byte) $30, (byte) $37, (byte) $1a, (byte) $f, (byte) $f, (byte) $f, (byte) $f }
(const struct RICOH_2C02*) PPU = (struct RICOH_2C02*) 8192
(const nomodify byte*) PPU_ATTRIBUTE_TABLE_0 = (byte*) 9152
(const nomodify byte*) PPU_NAME_TABLE_0 = (byte*) 8192
(const nomodify byte*) PPU_PALETTE = (byte*) 16128
(const nomodify to_volatile byte*) PPU_PPUSTATUS = (byte*) 8194
(byte) RICOH_2A03::DMC_FREQ
(byte) RICOH_2A03::DMC_LEN
(byte) RICOH_2A03::DMC_RAW
(byte) RICOH_2A03::DMC_START
(byte) RICOH_2A03::JOY1
(byte) RICOH_2A03::JOY2
(byte) RICOH_2A03::NOISE_HI
(byte) RICOH_2A03::NOISE_LO
(byte) RICOH_2A03::NOISE_VOL
(byte) RICOH_2A03::OAMDMA
(byte) RICOH_2A03::SND_CHN
(byte) RICOH_2A03::SQ1_HI
(byte) RICOH_2A03::SQ1_LO
(byte) RICOH_2A03::SQ1_SWEEP
(byte) RICOH_2A03::SQ1_VOL
(byte) RICOH_2A03::SQ2_HI
(byte) RICOH_2A03::SQ2_LO
(byte) RICOH_2A03::SQ2_SWEEP
(byte) RICOH_2A03::SQ2_VOL
(byte) RICOH_2A03::TRI_HI
(byte) RICOH_2A03::TRI_LINEAR
(byte) RICOH_2A03::TRI_LO
(byte) RICOH_2A03::UNUSED1
(byte) RICOH_2A03::UNUSED2
(byte) RICOH_2C02::OAMADDR
(byte) RICOH_2C02::OAMDATA
(byte) RICOH_2C02::PPUADDR
(byte) RICOH_2C02::PPUCTRL
(byte) RICOH_2C02::PPUDATA
(byte) RICOH_2C02::PPUMASK
(byte) RICOH_2C02::PPUSCROLL
(volatile byte) RICOH_2C02::PPUSTATUS loadstore
(const byte) SIZEOF_BYTE = (byte) 1
(const byte) SIZEOF_STRUCT_SPRITEDATA = (byte) 4
(const struct SpriteData*) SPRITES[]  = { { y: (byte) $96, tile: (byte) $36, attributes: (byte) 2, x: (byte) $c }, { y: (byte) $96, tile: (byte) $37, attributes: (byte) 2, x: (byte) $14 }, { y: (byte) $9e, tile: (byte) $38, attributes: (byte) 2, x: (byte) $c }, { y: (byte) $9e, tile: (byte) $39, attributes: (byte) 2, x: (byte) $14 }, { y: (byte) $96, tile: (byte) $70, attributes: (byte) 0, x: (byte) $48 }, { y: (byte) $96, tile: (byte) $71, attributes: (byte) 0, x: (byte) $50 }, { y: (byte) $9e, tile: (byte) $72, attributes: (byte) 1, x: (byte) $48 }, { y: (byte) $9e, tile: (byte) $73, attributes: (byte) 1, x: (byte) $50 } }
(const struct SpriteData*) SPRITE_BUFFER[(number) $40]  = { fill( $40, 0) }
(byte) SpriteData::attributes
(byte) SpriteData::tile
(byte) SpriteData::x
(byte) SpriteData::y
(const byte*) TILES[]  = kickasm {{ .import binary "smb1_chr.bin"
 }}
(const to_nomodify void()**) VECTORS[]  = { &interrupt(HARDWARE_STACK)(void()) vblank(), &(void()) main(), (void()*) 0 }
(void()) main()
(label) main::@1
(label) main::@2
(label) main::@3
(label) main::@4
(label) main::@5
(label) main::@6
(label) main::@7
(label) main::@8
(label) main::@9
(label) main::enableVideoOutput1
(label) main::initNES1
(label) main::initNES1_@1
(label) main::initNES1_@7
(label) main::initNES1_clearVBlankFlag1
(label) main::initNES1_disableAudioOutput1
(label) main::initNES1_disableVideoOutput1
(byte) main::initNES1_i
(byte) main::initNES1_i#1 reg byte x 16.5
(byte) main::initNES1_i#2 reg byte x 12.222222222222221
(label) main::initNES1_waitForVBlank1
(byte~) main::initNES1_waitForVBlank1_$0 reg byte a 22.0
(label) main::initNES1_waitForVBlank1_@1
(label) main::initNES1_waitForVBlank2
(byte~) main::initNES1_waitForVBlank2_$0 reg byte a 22.0
(label) main::initNES1_waitForVBlank2_@1
(byte) main::x
(byte) main::x#1 reg byte x 22.0
(byte) main::x#2 reg byte x 8.8
(void*()) memcpy((void*) memcpy::destination , (void*) memcpy::source , (word) memcpy::num)
(label) memcpy::@1
(label) memcpy::@2
(label) memcpy::@return
(void*) memcpy::destination
(const void*) memcpy::destination#0 destination = (void*)(const struct SpriteData*) SPRITE_BUFFER
(byte*) memcpy::dst
(byte*) memcpy::dst#1 dst zp[2]:6 101.0
(byte*) memcpy::dst#2 dst zp[2]:6 101.0
(word) memcpy::num
(const word) memcpy::num#0 num = (byte) 8*(const byte) SIZEOF_STRUCT_SPRITEDATA
(void*) memcpy::return
(void*) memcpy::source
(const void*) memcpy::source#0 source = (void*)(const struct SpriteData*) SPRITES
(byte*) memcpy::src
(byte*) memcpy::src#1 src zp[2]:4 202.0
(byte*) memcpy::src#2 src zp[2]:4 101.0
(byte*) memcpy::src_end
(const byte*) memcpy::src_end#0 src_end = (byte*)(const void*) memcpy::source#0+(const word) memcpy::num#0
(void()) ppuDataFill((nomodify void*) ppuDataFill::ppuData , (byte) ppuDataFill::val , (word) ppuDataFill::size)
(label) ppuDataFill::@1
(label) ppuDataFill::@2
(label) ppuDataFill::@return
(word) ppuDataFill::i
(word) ppuDataFill::i#1 i zp[2]:2 202.0
(word) ppuDataFill::i#2 i zp[2]:2 101.0
(nomodify void*) ppuDataFill::ppuData
(label) ppuDataFill::ppuDataPrepare1
(byte~) ppuDataFill::ppuDataPrepare1_$0 reg byte a 22.0
(byte~) ppuDataFill::ppuDataPrepare1_$1 reg byte a 22.0
(nomodify void*) ppuDataFill::ppuDataPrepare1_ppuData
(nomodify void*) ppuDataFill::ppuDataPrepare1_ppuData#0 ppuDataPrepare1_ppuData zp[2]:4 7.333333333333333
(label) ppuDataFill::ppuDataPut1
(byte) ppuDataFill::ppuDataPut1_val
(word) ppuDataFill::size
(word) ppuDataFill::size#3 size zp[2]:6 11.222222222222221
(byte) ppuDataFill::val
(byte) ppuDataFill::val#4 reg byte x 11.222222222222221
(void()) ppuDataPutTile((nomodify void*) ppuDataPutTile::ppuData , (byte*) ppuDataPutTile::tile)
(label) ppuDataPutTile::@1
(label) ppuDataPutTile::@2
(label) ppuDataPutTile::@3
(label) ppuDataPutTile::@4
(label) ppuDataPutTile::@5
(label) ppuDataPutTile::@return
(nomodify void*) ppuDataPutTile::ppuData
(nomodify byte*) ppuDataPutTile::ppuData#0 ppuData zp[2]:2 11.0
(nomodify void*) ppuDataPutTile::ppuData#2 ppuData zp[2]:2 23.666666666666664
(nomodify void*) ppuDataPutTile::ppuData#9 ppuData zp[2]:2 22.0
(label) ppuDataPutTile::ppuDataPrepare1
(byte~) ppuDataPutTile::ppuDataPrepare1_$0 reg byte a 202.0
(byte~) ppuDataPutTile::ppuDataPrepare1_$1 reg byte a 202.0
(nomodify void*) ppuDataPutTile::ppuDataPrepare1_ppuData
(label) ppuDataPutTile::ppuDataPrepare2
(byte~) ppuDataPutTile::ppuDataPrepare2_$0 reg byte a 202.0
(byte~) ppuDataPutTile::ppuDataPrepare2_$1 reg byte a 202.0
(nomodify void*) ppuDataPutTile::ppuDataPrepare2_ppuData
(nomodify byte*) ppuDataPutTile::ppuDataPrepare2_ppuData#0 ppuDataPrepare2_ppuData zp[2]:2 33.666666666666664
(label) ppuDataPutTile::ppuDataPut1
(byte) ppuDataPutTile::ppuDataPut1_val
(byte) ppuDataPutTile::ppuDataPut1_val#0 reg byte a 202.0
(label) ppuDataPutTile::ppuDataPut2
(byte) ppuDataPutTile::ppuDataPut2_val
(byte) ppuDataPutTile::ppuDataPut2_val#0 reg byte a 202.0
(label) ppuDataPutTile::ppuDataPut3
(byte) ppuDataPutTile::ppuDataPut3_val
(byte) ppuDataPutTile::ppuDataPut3_val#0 reg byte a 202.0
(label) ppuDataPutTile::ppuDataPut4
(byte) ppuDataPutTile::ppuDataPut4_val
(byte) ppuDataPutTile::ppuDataPut4_val#0 reg byte a 202.0
(byte*) ppuDataPutTile::tile
(byte*) ppuDataPutTile::tile#10 tile zp[2]:4 25.25
(void()) ppuDataTransfer((nomodify void*) ppuDataTransfer::ppuData , (nomodify void*) ppuDataTransfer::cpuData , (word) ppuDataTransfer::size)
(label) ppuDataTransfer::@1
(label) ppuDataTransfer::@2
(label) ppuDataTransfer::@3
(label) ppuDataTransfer::@return
(nomodify void*) ppuDataTransfer::cpuData
(const nomodify void*) ppuDataTransfer::cpuData#0 cpuData = (void*)(const byte*) PALETTE
(byte*) ppuDataTransfer::cpuSrc
(byte*) ppuDataTransfer::cpuSrc#1 cpuSrc zp[2]:6 101.0
(byte*) ppuDataTransfer::cpuSrc#2 cpuSrc zp[2]:6 75.75
(word) ppuDataTransfer::i
(word) ppuDataTransfer::i#1 i zp[2]:4 202.0
(word) ppuDataTransfer::i#2 i zp[2]:4 60.599999999999994
(nomodify void*) ppuDataTransfer::ppuData
(const nomodify void*) ppuDataTransfer::ppuData#0 ppuData = (void*)(const nomodify byte*) PPU_PALETTE
(label) ppuDataTransfer::ppuDataPrepare1
(nomodify void*) ppuDataTransfer::ppuDataPrepare1_ppuData
(label) ppuDataTransfer::ppuDataPut1
(byte) ppuDataTransfer::ppuDataPut1_val
(byte) ppuDataTransfer::ppuDataPut1_val#0 reg byte a 202.0
(word) ppuDataTransfer::size
(const word) ppuDataTransfer::size#0 size = (byte) $20*(const byte) SIZEOF_BYTE
(byte()) readJoy1()
(byte~) readJoy1::$1 zp[1]:8 101.0
(byte~) readJoy1::$2 reg byte a 202.0
(label) readJoy1::@1
(label) readJoy1::@2
(label) readJoy1::@return
(byte) readJoy1::i
(byte) readJoy1::i#1 reg byte x 202.0
(byte) readJoy1::i#2 reg byte x 60.599999999999994
(byte) readJoy1::joy
(byte) readJoy1::joy#1 reg byte a 101.0
(byte) readJoy1::joy#2 reg byte a 51.0
(byte) readJoy1::return
(byte) readJoy1::return#2 reg byte a 4.0
interrupt(HARDWARE_STACK)(void()) vblank()
(byte~) vblank::$1 reg byte a 4.0
(byte~) vblank::$3 reg byte a 4.0
(byte~) vblank::$5 reg byte a 4.0
(byte~) vblank::$7 reg byte a 4.0
(label) vblank::@1
(label) vblank::@2
(label) vblank::@3
(label) vblank::@4
(label) vblank::@5
(label) vblank::@6
(label) vblank::@7
(label) vblank::@8
(label) vblank::@9
(label) vblank::@return
(byte) vblank::joy
(byte) vblank::joy#0 reg byte x 0.5263157894736842
(label) vblank::ppuSpriteBufferDmaTransfer1
(struct SpriteData*) vblank::ppuSpriteBufferDmaTransfer1_spriteBuffer

reg byte x [ main::initNES1_i#2 main::initNES1_i#1 ]
reg byte x [ main::x#2 main::x#1 ]
reg byte x [ readJoy1::i#2 readJoy1::i#1 ]
reg byte a [ readJoy1::joy#2 readJoy1::joy#1 ]
reg byte x [ ppuDataFill::val#4 ]
zp[2]:2 [ ppuDataPutTile::ppuData#2 ppuDataPutTile::ppuData#9 ppuDataPutTile::ppuData#0 ppuDataPutTile::ppuDataPrepare2_ppuData#0 ppuDataFill::i#2 ppuDataFill::i#1 ]
zp[2]:4 [ memcpy::src#2 memcpy::src#1 ppuDataPutTile::tile#10 ppuDataFill::ppuDataPrepare1_ppuData#0 ppuDataTransfer::i#2 ppuDataTransfer::i#1 ]
zp[2]:6 [ memcpy::dst#2 memcpy::dst#1 ppuDataFill::size#3 ppuDataTransfer::cpuSrc#2 ppuDataTransfer::cpuSrc#1 ]
reg byte a [ readJoy1::return#2 ]
reg byte x [ vblank::joy#0 ]
reg byte a [ vblank::$1 ]
reg byte a [ vblank::$3 ]
reg byte a [ vblank::$5 ]
reg byte a [ vblank::$7 ]
reg byte a [ main::initNES1_waitForVBlank1_$0 ]
reg byte a [ main::initNES1_waitForVBlank2_$0 ]
zp[1]:8 [ readJoy1::$1 ]
reg byte a [ readJoy1::$2 ]
reg byte a [ ppuDataTransfer::ppuDataPut1_val#0 ]
reg byte a [ ppuDataFill::ppuDataPrepare1_$0 ]
reg byte a [ ppuDataFill::ppuDataPrepare1_$1 ]
reg byte a [ ppuDataPutTile::ppuDataPrepare1_$0 ]
reg byte a [ ppuDataPutTile::ppuDataPrepare1_$1 ]
reg byte a [ ppuDataPutTile::ppuDataPut1_val#0 ]
reg byte a [ ppuDataPutTile::ppuDataPut2_val#0 ]
reg byte a [ ppuDataPutTile::ppuDataPrepare2_$0 ]
reg byte a [ ppuDataPutTile::ppuDataPrepare2_$1 ]
reg byte a [ ppuDataPutTile::ppuDataPut3_val#0 ]
reg byte a [ ppuDataPutTile::ppuDataPut4_val#0 ]
