(const nomodify byte*) COLORRAM = (byte*) 55296
(const nomodify byte*) DEFAULT_SCREEN = (byte*) 1024
(const nomodify byte) LIGHT_BLUE = (byte) $e
(byte) MOS6526_CIA::INTERRUPT
(byte) MOS6526_CIA::PORT_A
(byte) MOS6526_CIA::PORT_A_DDR
(byte) MOS6526_CIA::PORT_B
(byte) MOS6526_CIA::PORT_B_DDR
(byte) MOS6526_CIA::SERIAL_DATA
(word) MOS6526_CIA::TIMER_A
(byte) MOS6526_CIA::TIMER_A_CONTROL
(word) MOS6526_CIA::TIMER_B
(byte) MOS6526_CIA::TIMER_B_CONTROL
(byte) MOS6526_CIA::TOD_10THS
(byte) MOS6526_CIA::TOD_HOURS
(byte) MOS6526_CIA::TOD_MIN
(byte) MOS6526_CIA::TOD_SEC
(byte) MOS6569_VICII::BG_COLOR
(byte) MOS6569_VICII::BG_COLOR1
(byte) MOS6569_VICII::BG_COLOR2
(byte) MOS6569_VICII::BG_COLOR3
(byte) MOS6569_VICII::BORDER_COLOR
(byte) MOS6569_VICII::CONTROL1
(byte) MOS6569_VICII::CONTROL2
(byte) MOS6569_VICII::IRQ_ENABLE
(byte) MOS6569_VICII::IRQ_STATUS
(byte) MOS6569_VICII::LIGHTPEN_X
(byte) MOS6569_VICII::LIGHTPEN_Y
(byte) MOS6569_VICII::MEMORY
(byte) MOS6569_VICII::RASTER
(byte) MOS6569_VICII::SPRITE0_COLOR
(byte) MOS6569_VICII::SPRITE0_X
(byte) MOS6569_VICII::SPRITE0_Y
(byte) MOS6569_VICII::SPRITE1_COLOR
(byte) MOS6569_VICII::SPRITE1_X
(byte) MOS6569_VICII::SPRITE1_Y
(byte) MOS6569_VICII::SPRITE2_COLOR
(byte) MOS6569_VICII::SPRITE2_X
(byte) MOS6569_VICII::SPRITE2_Y
(byte) MOS6569_VICII::SPRITE3_COLOR
(byte) MOS6569_VICII::SPRITE3_X
(byte) MOS6569_VICII::SPRITE3_Y
(byte) MOS6569_VICII::SPRITE4_COLOR
(byte) MOS6569_VICII::SPRITE4_X
(byte) MOS6569_VICII::SPRITE4_Y
(byte) MOS6569_VICII::SPRITE5_COLOR
(byte) MOS6569_VICII::SPRITE5_X
(byte) MOS6569_VICII::SPRITE5_Y
(byte) MOS6569_VICII::SPRITE6_COLOR
(byte) MOS6569_VICII::SPRITE6_X
(byte) MOS6569_VICII::SPRITE6_Y
(byte) MOS6569_VICII::SPRITE7_COLOR
(byte) MOS6569_VICII::SPRITE7_X
(byte) MOS6569_VICII::SPRITE7_Y
(byte) MOS6569_VICII::SPRITES_BG_COLLISION
(byte) MOS6569_VICII::SPRITES_COLLISION
(byte) MOS6569_VICII::SPRITES_ENABLE
(byte) MOS6569_VICII::SPRITES_EXPAND_X
(byte) MOS6569_VICII::SPRITES_EXPAND_Y
(byte) MOS6569_VICII::SPRITES_MC
(byte) MOS6569_VICII::SPRITES_MCOLOR1
(byte) MOS6569_VICII::SPRITES_MCOLOR2
(byte) MOS6569_VICII::SPRITES_PRIORITY
(byte) MOS6569_VICII::SPRITES_XMSB
(byte) MOS6581_SID::CH1_ATTACK_DECAY
(byte) MOS6581_SID::CH1_CONTROL
(word) MOS6581_SID::CH1_FREQ
(word) MOS6581_SID::CH1_PULSE_WIDTH
(byte) MOS6581_SID::CH1_SUSTAIN_RELEASE
(byte) MOS6581_SID::CH2_ATTACK_DECAY
(byte) MOS6581_SID::CH2_CONTROL
(word) MOS6581_SID::CH2_FREQ
(word) MOS6581_SID::CH2_PULSE_WIDTH
(byte) MOS6581_SID::CH2_SUSTAIN_RELEASE
(byte) MOS6581_SID::CH3_ATTACK_DECAY
(byte) MOS6581_SID::CH3_CONTROL
(byte) MOS6581_SID::CH3_ENV
(word) MOS6581_SID::CH3_FREQ
(byte) MOS6581_SID::CH3_OSC
(word) MOS6581_SID::CH3_PULSE_WIDTH
(byte) MOS6581_SID::CH3_SUSTAIN_RELEASE
(byte) MOS6581_SID::FILTER_CUTOFF_HIGH
(byte) MOS6581_SID::FILTER_CUTOFF_LOW
(byte) MOS6581_SID::FILTER_SETUP
(byte) MOS6581_SID::POT_X
(byte) MOS6581_SID::POT_Y
(byte) MOS6581_SID::VOLUME_FILTER_MODE
(const byte) RADIX::BINARY = (number) 2
(const byte) RADIX::DECIMAL = (number) $a
(const byte) RADIX::HEXADECIMAL = (number) $10
(const byte) RADIX::OCTAL = (number) 8
(void()) __start()
(label) __start::@1
(label) __start::@return
(label) __start::__init1
(byte) conio_cursor_x loadstore zp[1]:6 6000.32
(byte) conio_cursor_y loadstore zp[1]:7 78048.9512195122
(byte*) conio_line_color loadstore zp[2]:10 56666.846153846156
(byte*) conio_line_text loadstore zp[2]:8 55250.175
(void()) cputc((byte) cputc::c)
(label) cputc::@1
(label) cputc::@2
(label) cputc::@3
(label) cputc::@return
(byte) cputc::c
(byte) cputc::c#0 reg byte a 10501.5
(void()) cputln()
(label) cputln::@return
(void()) cputs((to_nomodify byte*) cputs::s)
(label) cputs::@1
(label) cputs::@2
(label) cputs::@return
(byte) cputs::c
(byte) cputs::c#1 reg byte a 1001.0
(to_nomodify byte*) cputs::s
(to_nomodify byte*) cputs::s#0 s zp[2]:2 500.5
(to_nomodify byte*) cputs::s#2 s zp[2]:2 1501.5
(void()) cscroll()
(label) cscroll::@1
(label) cscroll::@2
(label) cscroll::@3
(label) cscroll::@4
(label) cscroll::@5
(label) cscroll::@return
(void()) main()
(label) main::@return
(const byte*) main::s[(byte) $e]  = (byte*) "hello world!
"
(void*()) memcpy((void*) memcpy::destination , (void*) memcpy::source , (word) memcpy::num)
(label) memcpy::@1
(label) memcpy::@2
(label) memcpy::@return
(void*) memcpy::destination
(void*) memcpy::destination#2 destination zp[2]:14
(byte*) memcpy::dst
(byte*) memcpy::dst#1 dst zp[2]:14 1.000000001E9
(byte*) memcpy::dst#2 dst zp[2]:14 1.0033333346666667E9
(byte*) memcpy::dst#4 dst zp[2]:14 2.0000002E7
(word) memcpy::num
(void*) memcpy::return
(void*) memcpy::source
(void*) memcpy::source#2 source zp[2]:4
(byte*) memcpy::src
(byte*) memcpy::src#1 src zp[2]:4 2.000000002E9
(byte*) memcpy::src#2 src zp[2]:4 1.00250000125E9
(byte*) memcpy::src#4 src zp[2]:4 1.0000001E7
(byte*) memcpy::src_end
(byte*) memcpy::src_end#0 src_end zp[2]:12 1.2625000025E8
(void*()) memset((void*) memset::str , (byte) memset::c , (word) memset::num)
(label) memset::@1
(label) memset::@2
(label) memset::@3
(label) memset::@return
(byte) memset::c
(byte) memset::c#4 reg byte x 1.42857143E8
(byte*) memset::dst
(byte*) memset::dst#1 dst zp[2]:4 2.000000002E9
(byte*) memset::dst#2 dst zp[2]:4 1.3366666683333335E9
(byte*) memset::dst#4 dst zp[2]:4 2.0000002E7
(byte*) memset::end
(byte*) memset::end#0 end zp[2]:14 1.683333336666667E8
(word) memset::num
(void*) memset::return
(void*) memset::str
(void*) memset::str#3 str zp[2]:4
(const byte*) printf_buffer_number::digits[(number) $b]  = { fill( $b, 0) }
(byte) printf_buffer_number::sign
(byte) printf_format_number::justify_left
(byte) printf_format_number::min_length
(byte) printf_format_number::radix
(byte) printf_format_number::sign_always
(byte) printf_format_number::upper_case
(byte) printf_format_number::zero_padding
(byte) printf_format_string::justify_left
(byte) printf_format_string::min_length

zp[2]:2 [ cputs::s#2 cputs::s#0 ]
zp[2]:4 [ memset::str#3 memset::dst#2 memset::dst#4 memset::dst#1 memcpy::source#2 memcpy::src#2 memcpy::src#4 memcpy::src#1 ]
reg byte x [ memset::c#4 ]
zp[1]:6 [ conio_cursor_x ]
zp[1]:7 [ conio_cursor_y ]
zp[2]:8 [ conio_line_text ]
zp[2]:10 [ conio_line_color ]
reg byte a [ cputs::c#1 ]
reg byte a [ cputc::c#0 ]
zp[2]:12 [ memcpy::src_end#0 ]
zp[2]:14 [ memset::end#0 memcpy::destination#2 memcpy::dst#2 memcpy::dst#4 memcpy::dst#1 ]
