(byte) MOS6526_CIA::INTERRUPT
(byte) MOS6526_CIA::PORT_A
(byte) MOS6526_CIA::PORT_A_DDR
(byte) MOS6526_CIA::PORT_B
(byte) MOS6526_CIA::PORT_B_DDR
(byte) MOS6526_CIA::SERIAL_DATA
(word) MOS6526_CIA::TIMER_A
(byte) MOS6526_CIA::TIMER_A_CONTROL
(word) MOS6526_CIA::TIMER_B
(byte) MOS6526_CIA::TIMER_B_CONTROL
(byte) MOS6526_CIA::TOD_10THS
(byte) MOS6526_CIA::TOD_HOURS
(byte) MOS6526_CIA::TOD_MIN
(byte) MOS6526_CIA::TOD_SEC
(byte) MOS6569_VICII::BG_COLOR
(byte) MOS6569_VICII::BG_COLOR1
(byte) MOS6569_VICII::BG_COLOR2
(byte) MOS6569_VICII::BG_COLOR3
(byte) MOS6569_VICII::BORDER_COLOR
(byte) MOS6569_VICII::CONTROL1
(byte) MOS6569_VICII::CONTROL2
(byte) MOS6569_VICII::IRQ_ENABLE
(byte) MOS6569_VICII::IRQ_STATUS
(byte) MOS6569_VICII::LIGHTPEN_X
(byte) MOS6569_VICII::LIGHTPEN_Y
(byte) MOS6569_VICII::MEMORY
(byte) MOS6569_VICII::RASTER
(byte) MOS6569_VICII::SPRITE0_COLOR
(byte) MOS6569_VICII::SPRITE0_X
(byte) MOS6569_VICII::SPRITE0_Y
(byte) MOS6569_VICII::SPRITE1_COLOR
(byte) MOS6569_VICII::SPRITE1_X
(byte) MOS6569_VICII::SPRITE1_Y
(byte) MOS6569_VICII::SPRITE2_COLOR
(byte) MOS6569_VICII::SPRITE2_X
(byte) MOS6569_VICII::SPRITE2_Y
(byte) MOS6569_VICII::SPRITE3_COLOR
(byte) MOS6569_VICII::SPRITE3_X
(byte) MOS6569_VICII::SPRITE3_Y
(byte) MOS6569_VICII::SPRITE4_COLOR
(byte) MOS6569_VICII::SPRITE4_X
(byte) MOS6569_VICII::SPRITE4_Y
(byte) MOS6569_VICII::SPRITE5_COLOR
(byte) MOS6569_VICII::SPRITE5_X
(byte) MOS6569_VICII::SPRITE5_Y
(byte) MOS6569_VICII::SPRITE6_COLOR
(byte) MOS6569_VICII::SPRITE6_X
(byte) MOS6569_VICII::SPRITE6_Y
(byte) MOS6569_VICII::SPRITE7_COLOR
(byte) MOS6569_VICII::SPRITE7_X
(byte) MOS6569_VICII::SPRITE7_Y
(byte) MOS6569_VICII::SPRITES_BG_COLLISION
(byte) MOS6569_VICII::SPRITES_COLLISION
(byte) MOS6569_VICII::SPRITES_ENABLE
(byte) MOS6569_VICII::SPRITES_EXPAND_X
(byte) MOS6569_VICII::SPRITES_EXPAND_Y
(byte) MOS6569_VICII::SPRITES_MC
(byte) MOS6569_VICII::SPRITES_MCOLOR1
(byte) MOS6569_VICII::SPRITES_MCOLOR2
(byte) MOS6569_VICII::SPRITES_PRIORITY
(byte) MOS6569_VICII::SPRITES_XMSB
(byte) MOS6581_SID::CH1_ATTACK_DECAY
(byte) MOS6581_SID::CH1_CONTROL
(word) MOS6581_SID::CH1_FREQ
(word) MOS6581_SID::CH1_PULSE_WIDTH
(byte) MOS6581_SID::CH1_SUSTAIN_RELEASE
(byte) MOS6581_SID::CH2_ATTACK_DECAY
(byte) MOS6581_SID::CH2_CONTROL
(word) MOS6581_SID::CH2_FREQ
(word) MOS6581_SID::CH2_PULSE_WIDTH
(byte) MOS6581_SID::CH2_SUSTAIN_RELEASE
(byte) MOS6581_SID::CH3_ATTACK_DECAY
(byte) MOS6581_SID::CH3_CONTROL
(byte) MOS6581_SID::CH3_ENV
(word) MOS6581_SID::CH3_FREQ
(byte) MOS6581_SID::CH3_OSC
(word) MOS6581_SID::CH3_PULSE_WIDTH
(byte) MOS6581_SID::CH3_SUSTAIN_RELEASE
(byte) MOS6581_SID::FILTER_CUTOFF_HIGH
(byte) MOS6581_SID::FILTER_CUTOFF_LOW
(byte) MOS6581_SID::FILTER_SETUP
(byte) MOS6581_SID::POT_X
(byte) MOS6581_SID::POT_Y
(byte) MOS6581_SID::VOLUME_FILTER_MODE
(const byte) OFFSET_STRUCT_MOS6569_VICII_BG_COLOR = (byte) $21
(const byte) OFFSET_STRUCT_MOS6569_VICII_CONTROL2 = (byte) $16
(const byte) OFFSET_STRUCT_MOS6569_VICII_RASTER = (byte) $12
(const nomodify byte*) SCREEN = (byte*) 1024
(const to_nomodify byte*) TEXT[]  = (byte*) "-= this is rex of camelot testing a scroller created in kickc. kickc is an optimizing c-compiler for 6502 assembler. =-     "
(const nomodify struct MOS6569_VICII*) VICII = (struct MOS6569_VICII*) 53248
(void()) fillscreen((byte*) fillscreen::screen , (byte) fillscreen::fill)
(label) fillscreen::@1
(label) fillscreen::@2
(label) fillscreen::@return
(byte*) fillscreen::cursor
(byte*) fillscreen::cursor#1 cursor zp[2]:4 202.0
(byte*) fillscreen::cursor#2 cursor zp[2]:4 134.66666666666666
(byte) fillscreen::fill
(const byte) fillscreen::fill#0 fill = (byte) $20
(byte*) fillscreen::screen
(void()) main()
(label) main::@1
(label) main::@2
(label) main::@3
(label) main::@4
(label) main::@5
(label) main::@6
(label) main::@7
(label) main::@8
(label) main::@9
(byte) main::c
(byte) main::c#0 reg byte x 16.5
(byte) main::c#1 reg byte x 22.0
(byte) main::c#2 reg byte x 33.0
(byte) main::i
(byte) main::i#1 reg byte x 202.0
(byte) main::i#2 reg byte x 168.33333333333331
(const nomodify byte*) main::line = (const nomodify byte*) SCREEN+(byte) $28
(byte*) main::nxt
(byte*) main::nxt#1 nxt zp[2]:2 22.0
(byte*) main::nxt#10 nxt zp[2]:2 20.500000000000004
(byte*) main::nxt#11 nxt zp[2]:2 11.0
(byte*) main::nxt#4 nxt zp[2]:2 11.0
(byte) main::scroll
(byte) main::scroll#1 reg byte x 16.5
(byte) main::scroll#4 reg byte x 11.0
(byte) main::scroll#7 reg byte x 56.0

reg byte x [ main::scroll#7 main::scroll#4 main::scroll#1 ]
reg byte x [ main::i#2 main::i#1 ]
reg byte x [ main::c#2 main::c#0 main::c#1 ]
zp[2]:2 [ main::nxt#4 main::nxt#10 main::nxt#11 main::nxt#1 ]
zp[2]:4 [ fillscreen::cursor#2 fillscreen::cursor#1 ]
